Sábado Show	SABA	3800	Canal 13 DTV	BS13	20:30:00	23:59:59	0,0,0,0,0,0,1	2012-08-08	0	Televisión	Buenos Aires	DirectvMulti	6
70.20.13	7020	2100	Canal 13 DTV	BS13	00:00:00	00:59:59	1,0,0,0,0,0,0	2012-08-08	0	Televisión	Buenos Aires	DirectvMulti	6
Piñón Fijo	PFIJ	600	Canal 13 DTV	BS13	09:30:00	09:59:59	1,0,0,0,0,0,0	2012-08-08	0	Televisión	Buenos Aires	DirectvMulti	6
El Garage	EGAR	1100	Canal 13 DTV	BS13	10:00:00	10:59:59	1,0,0,0,0,0,0	2012-08-08	0	Televisión	Buenos Aires	DirectvMulti	6
Carburando	CARB	2000	Canal 13 DTV	BS13	11:00:00	13:59:59	1,0,0,0,0,0,0	2012-08-08	0	Televisión	Buenos Aires	DirectvMulti	6
Telenoche	TENO	4600	Canal 13 DTV	BS13	20:00:00	20:59:59	0,1,1,1,1,1,0	2012-08-08	0	Televisión	Buenos Aires	DirectvMulti	6
Soñando por cantar	SOPC	9000	Canal 13 DTV	BS13	21:00:00	21:59:59	0,1,1,0,1,1,0	2012-08-08	0	Televisión	Buenos Aires	DirectvMulti	6
Soñando por cantar	SOPC	9000	Canal 13 DTV	BS13	21:00:00	23:29:59	0,0,0,1,0,0,0	2012-08-08	0	Televisión	Buenos Aires	DirectvMulti	6
Condicionados	COND	5500	Canal 13 DTV	BS13	23:30:00	23:59:59	0,0,0,1,0,0,0	2012-08-08	0	Televisión	Buenos Aires	DirectvMulti	6
6 7 8 Repetición Semana	678	600	Canal 7	BS07	02:30:00	03:59:59	0,0,0,1,1,1,0	2012-08-15	0	Televisión	Buenos Aires	DirectvMulti	12
Panam y circo	PANA	900	Canal 13 DTV	BS13	09:30:00	10:29:59	0,1,1,1,1,1,0	2012-08-08	0	Televisión	Buenos Aires	DirectvMulti	6
Piñón FIjo	PFIJ	750	Canal 13 DTV	BS13	10:30:00	11:29:59	0,1,1,1,1,1,0	2012-08-08	0	Televisión	Buenos Aires	DirectvMulti	6
Las aventuras de Hijitus	HIJI	900	Canal 13 DTV	BS13	11:30:00	11:59:59	0,1,1,1,1,1,0	2012-08-08	0	Televisión	Buenos Aires	DirectvMulti	6
EL Zorro	EZOR	1150	Canal 13 DTV	BS13	12:00:00	12:59:59	0,1,1,1,1,1,0	2012-08-08	0	Televisión	Buenos Aires	DirectvMulti	6
Visión 7 Medianoche	VIME	700	Canal 7	BS07	23:30:00	23:59:59	0,0,0,0,0,1,0	2012-08-15	0	Televisión	Buenos Aires	DirectvMulti	12
Qué fue de tu vida	QFTV	1000	Canal 7	BS07	22:30:00	23:29:29	0,0,0,0,0,1,0	2012-08-15	0	Televisión	Buenos Aires	DirectvMulti	12
Televenta Canal 13	TELE	0	Canal 13 DTV	BS13	01:00:00	06:59:59	1,1,1,0,1,1,1	2012-02-01	0	Televisión	Buenos Aires	DirectvMulti	6
Televenta Canal 13	TELE	0	Canal 13 DTV	BS13	07:00:00	08:29:59	1,0,0,0,0,0,1	2012-02-01	0	Televisión	Buenos Aires	DirectvMulti	6
Cine Shampoo	CISH	1200	Canal 13 DTV	BS13	15:00:00	16:59:59	1,0,0,0,0,0,0	2012-08-08	0	Televisión	Buenos Aires	DirectvMulti	6
La cocina del show	LCDS	1600	Canal 13 DTV	BS13	14:30:00	20:29:59	0,0,0,0,0,0,1	2012-08-08	0	Televisión	Buenos Aires	DirectvMulti	6
En Síntesis	ESIS	2400	Canal 13 DTV	BS13	00:30:00	00:59:59	0,0,0,0,1,0,0	2012-08-08	0	Televisión	Buenos Aires	DirectvMulti	6
Panam y circo	PANA	60	Canal 13 DTV	BS13	08:30:00	08:59:59	1,0,0,0,0,0,0	2012-08-08	0	Televisión	Buenos Aires	DirectvMulti	6
Plim Plim	PLIM	600	Canal 13 DTV	BS13	09:00:00	09:29:59	1,0,0,0,0,0,1	2012-08-08	0	Televisión	Buenos Aires	DirectvMulti	6
Resto del Mundo	REST	1300	Canal 13 DTV	BS13	00:00:00	00:29:59	0,1,0,0,0,0,0	2012-08-08	0	Televisión	Buenos Aires	DirectvMulti	6
6 7 8 Repetición Semana	678	600	Canal 7	BS07	03:30:00	04:29:59	0,0,1,0,0,0,0	2012-08-15	0	Televisión	Buenos Aires	DirectvMulti	12
Demoliendo Teles	DEMO	1100	Canal 13 DTV	BS13	14:00:00	14:59:59	1,0,0,0,0,0,0	2012-08-08	0	Televisión	Buenos Aires	DirectvMulti	6
Panam y circo	PANA	600	Canal 13 DTV	BS13	09:30:00	09:59:59	0,0,0,0,0,0,1	2012-08-08	0	Televisión	Buenos Aires	DirectvMulti	6
Pîñón Fijo	PFIJ	600	Canal 13 DTV	BS13	10:00:00	10:59:59	0,0,0,0,0,0,1	2012-08-08	0	Televisión	Buenos Aires	DirectvMulti	6
Solo para reir	SOLO	800	Canal 13 DTV	BS13	11:00:00	11:59:59	0,0,0,0,0,0,1	2012-08-08	0	Televisión	Buenos Aires	DirectvMulti	6
Plan TV	PLAN	1100	Canal 13 DTV	BS13	12:00:00	12:59:59	0,0,0,0,0,0,1	2012-08-08	0	Televisión	Buenos Aires	DirectvMulti	6
Cine 13	CINE	1000	Canal 13 DTV	BS13	13:00:00	14:29:59	0,0,0,0,0,0,1	2012-08-08	0	Televisión	Buenos Aires	DirectvMulti	6
Visión 7 Central	VICE	1000	Canal 7	BS07	20:00:00	20:59:59	0,1,1,1,1,0,0	2012-08-15	0	Televisión	Buenos Aires	DirectvMulti	12
Televenta El Gourmet	TEVE	0	El Gourmet	BS50	07:00:00	07:59:59	1,1,1,1,1,1,1	2012-07-04	0	Televisión	Buenos Aires Cable	Cablevision	13
Programación Regular	PREG	100	MGM	BS51	00:00:00	07:59:59	1,1,1,1,1,1,1	2012-07-01	0	Televisión	Buenos Aires Cable	DirectvMulti	2
Televenta Canal 13	TELE	0	Canal 13 DTV	BS13	07:00:00	08:39:59	1,0,0,0,0,0,1	2012-02-01	0	Televisión	Buenos Aires	DirectvMulti	6
Ran 15	RAN1	1400	América DTV	BS02	11:30:00	12:59:59	1,0,0,0,0,0,0	2012-08-08	0	Televisión	Buenos Aires	DirectvMulti	7
Kubik	KUBI	500	América DTV	BS02	00:00:00	00:59:59	1,0,0,0,0,0,0	2012-08-08	0	Televisión	Buenos Aires	DirectvMulti	7
Fort Night Show	FORT	2000	América DTV	BS02	20:30:00	23:59:59	0,0,0,0,0,0,1	2012-08-08	0	Televisión	Buenos Aires	DirectvMulti	7
América Noticias	AMNO	1600	América DTV	BS02	19:00:00	20:29:59	0,0,0,0,0,0,1	2012-08-08	0	Televisión	Buenos Aires	DirectvMulti	7
Pasión	PASI	1000	América DTV	BS02	14:30:00	18:59:59	0,0,0,0,0,0,1	2012-08-08	0	Televisión	Buenos Aires	DirectvMulti	7
Gigantes del catch	GIGA	1400	América DTV	BS02	13:00:00	14:29:59	0,0,0,0,0,0,1	2012-08-08	0	Televisión	Buenos Aires	DirectvMulti	7
Siete en uno	SIET	1000	América DTV	BS02	11:30:00	12:59:59	0,0,0,0,0,0,1	2012-08-08	0	Televisión	Buenos Aires	DirectvMulti	7
Illusion Park	ILLU	500	América DTV	BS02	08:30:00	11:29:59	1,0,0,0,0,0,1	2012-08-08	0	Televisión	Buenos Aires	DirectvMulti	7
Animales Sueltos	ANIM	2400	América DTV	BS02	00:00:00	00:59:59	0,0,1,1,1,1,1	2012-08-08	0	Televisión	Buenos Aires	DirectvMulti	7
Animales Sueltos	ANIM	2400	América DTV	BS02	23:30:00	23:59:59	0,1,1,1,1,1,0	2012-08-08	0	Televisión	Buenos Aires	DirectvMulti	7
Calles Salvajes	CALL	2000	América DTV	BS02	22:00:00	23:29:59	0,0,0,0,0,1,0	2012-08-08	0	Televisión	Buenos Aires	DirectvMulti	7
GPS	GPS	2200	América DTV	BS02	22:00:00	23:29:59	0,0,0,0,1,0,0	2012-08-08	0	Televisión	Buenos Aires	DirectvMulti	7
Caiga Quien Caiga	CQC	4500	América DTV	BS02	22:00:00	23:29:59	0,0,0,1,0,0,0	2012-08-08	0	Televisión	Buenos Aires	DirectvMulti	7
Cámaras de seguridad	CAMS	2000	América DTV	BS02	22:00:00	23:29:59	0,0,1,0,0,0,0	2012-08-08	0	Televisión	Buenos Aires	DirectvMulti	7
Investigación limite	INVE	2000	América DTV	BS02	22:00:00	23:29:59	0,1,0,0,0,0,0	2012-08-08	0	Televisión	Buenos Aires	DirectvMulti	7
Antes que sea tarde	AQST	3500	América DTV	BS02	20:00:00	21:59:59	0,1,1,1,1,1,0	2012-08-08	0	Televisión	Buenos Aires	DirectvMulti	7
América Noticias Segunda Edición	ANSE	3100	América DTV	BS02	19:00:00	20:29:59	0,1,1,1,1,1,0	2012-08-08	0	Televisión	Buenos Aires	DirectvMulti	7
Infama	INFA	2200	América DTV	BS02	17:00:00	18:59:59	0,1,1,1,1,1,0	2012-08-08	0	Televisión	Buenos Aires	DirectvMulti	7
Los unos y los otros	LULO	2300	América DTV	BS02	15:30:00	16:59:59	0,1,1,1,1,1,0	2012-08-08	0	Televisión	Buenos Aires	DirectvMulti	7
Intrusos	INTR	2750	América DTV	BS02	13:00:00	14:29:59	0,1,1,1,1,1,0	2012-08-08	0	Televisión	Buenos Aires	DirectvMulti	7
América Noticias Primera Edición	ANPR	1500	América DTV	BS02	12:00:00	12:59:59	0,1,1,1,1,1,0	2012-08-08	0	Televisión	Buenos Aires	DirectvMulti	7
Desayuno Americano	DESA	900	América DTV	BS02	09:30:00	11:59:59	0,1,1,1,1,1,0	2012-08-08	0	Televisión	Buenos Aires	DirectvMulti	7
Mauro 360	MAUR	800	América DTV	BS02	08:00:00	09:29:59	0,1,1,1,1,1,0	2012-08-08	0	Televisión	Buenos Aires	DirectvMulti	7
Illusion Park	ILLU	500	América DTV	BS02	06:00:00	07:59:59	0,1,1,1,1,1,0	2012-08-08	0	Televisión	Buenos Aires	DirectvMulti	7
Cine	CINE	600	Canal 7	BS07	00:00:00	01:59:59	1,0,0,0,0,0,0	2012-08-15	0	Televisión	Buenos Aires	DirectvMulti	12
Filmoteca	FILM	300	Canal 7	BS07	02:30:00	03:29:59	0,0,1,0,0,0,0	2012-08-15	0	Televisión	Buenos Aires	DirectvMulti	12
Cine	CINE	700	Canal 7	BS07	00:00:00	01:29:59	0,0,0,0,0,0,1	2012-08-15	0	Televisión	Buenos Aires	DirectvMulti	12
Programación Regular - Mañana	PRMA	70	CN23	BS721	07:00:00	11:59:59	1,1,1,1,1,1,1	2012-10-03	0	Televisión	Buenos Aires Cable	DirectvMulti	10
Televenta CN 23	TEVE	0	CN23	BS721	03:00:00	06:59:59	1,1,1,1,1,1,1	2012-10-03	0	Televisión	Buenos Aires Cable	DirectvMulti	10
Programación Regular - Madrugada	PMAD	70	CN23	BS721	00:00:00	02:59:59	1,1,1,1,1,1,1	2012-10-03	0	Televisión	Buenos Aires Cable	DirectvMulti	10
Televenta Europa	TEVE	0	Europa	BS43	06:00:00	08:59:59	1,1,1,1,1,1,1	2012-09-26	0	Televisión	Buenos Aires Cable	Cablevision	11
Programación Regular Mañana	PRMA	65	Europa	BS43	09:00:00	11:59:59	1,1,1,1,1,1,1	2012-09-26	0	Televisión	Buenos Aires Cable	Cablevision	11
Programación Regular Madrugada	PMAD	65	Europa	BS43	00:00:00	05:59:59	1,1,1,1,1,1,1	2012-09-26	0	Televisión	Buenos Aires Cable	Cablevision	11
Televenta Europa	TEVE	100	Europa	BS43	06:00:00	09:59:59	1,1,1,1,1,1,1	2012-09-11	1	Televisión	Buenos Aires Cable	Cablevision	11
Programación Regular Madrugada	PMAD	65	Europa	BS43	00:00:00	05:59:59	1,1,1,1,1,1,1	2012-09-11	1	Televisión	Buenos Aires Cable	Cablevision	11
Repetición Noche	REPE	10	Canal 9	BS09	01:30:00	03:29:59	0,1,0,0,0,0,0	2012-09-05	0	Televisión	Buenos Aires	DirectvMulti	3
En Estereo	ENES	2300	Canal 13 DTV	BS13	01:00:00	01:29:59	0,1,0,0,0,0,0	2012-09-05	0	Televisión	Buenos Aires	DirectvMulti	6
Condicionados	COND	5500	Canal 13 DTV	BS13	00:00:00	00:29:59	0,0,0,0,1,0,0	2012-08-08	0	Televisión	Buenos Aires	DirectvMulti	6
CSI	CSI	1300	Canal 9	BS09	00:00:00	00:59:59	0,1,0,0,0,0,0	2012-09-05	0	Televisión	Buenos Aires	DirectvMulti	3
Bajada de línea	BAJA	3200	Canal 9	BS09	23:00:00	23:59:59	1,0,0,0,0,0,0	2012-09-05	0	Televisión	Buenos Aires	DirectvMulti	3
Soldados de Paz	SPAZ	145	Canal 7	BS07	06:00:00	06:29:59	0,1,1,1,1,1,0	2012-08-15	0	Televisión	Buenos Aires	DirectvMulti	12
La santa misa - Angelus	SMIS	145	Canal 7	BS07	09:00:00	09:59:59	1,0,0,0,0,0,0	2012-08-15	0	Televisión	Buenos Aires	DirectvMulti	12
El Cálamo y su mensaje	ECYM	145	Canal 7	BS07	08:00:00	08:59:59	1,0,0,0,0,0,0	2012-08-15	0	Televisión	Buenos Aires	DirectvMulti	12
Patrimonio y Nación	PYNA	700	Canal 7	BS07	15:30:00	15:59:59	1,0,0,0,0,0,0	2012-08-15	0	Televisión	Buenos Aires	DirectvMulti	12
Automovilismo Para Todos	APTO	700	Canal 7	BS07	11:00:00	13:59:59	1,0,0,0,0,0,0	2012-08-15	0	Televisión	Buenos Aires	DirectvMulti	12
Fútbol Para Todos	FPTO	1000	Canal 7	BS07	17:30:00	20:59:59	0,0,0,0,0,1,0	2012-08-15	0	Televisión	Buenos Aires	DirectvMulti	12
Programación Regular - Noche	PRNO	100	Telefé DTV	BS11	20:00:00	20:59:59	0,1,1,1,1,1,0	2012-08-10	0	Televisión	Buenos Aires	DirectvMulti	13
Programación Regular - Noche	PRNO	100	Telefé DTV	BS11	18:00:00	20:59:59	1,0,0,0,0,0,0	2012-08-10	0	Televisión	Buenos Aires	DirectvMulti	13
Programación Regular - Tarde	PRTA	100	Telefé DTV	BS11	13:00:00	17:59:59	1,0,0,0,0,0,1	2012-08-10	0	Televisión	Buenos Aires	DirectvMulti	13
Programación Regular - Madrugada	PMAD	100	Telefé DTV	BS11	00:00:00	01:29:59	0,0,0,0,0,0,1	2012-08-10	0	Televisión	Buenos Aires	DirectvMulti	13
Diario de medianoche	DIAM	1000	Telefé DTV	BS11	00:00:00	00:59:59	0,0,1,1,1,1,1	2012-08-11	1	Televisión	Buenos Aires	DirectvMulti	13
6 7 8 domingo repetición	678	600	Canal 7	BS07	04:00:00	05:29:59	0,1,0,0,0,0,0	2012-08-15	0	Televisión	Buenos Aires	DirectvMulti	12
Cine para todos	CIPT	145	Canal 7	BS07	02:00:00	03:59:59	0,1,0,0,0,0,0	2012-08-15	0	Televisión	Buenos Aires	DirectvMulti	12
Visión 7 Domingo	VISI	1000	Canal 7	BS07	00:00:00	00:59:59	0,1,0,0,0,0,0	2012-08-15	0	Televisión	Buenos Aires	DirectvMulti	12
Otra Trama	OTRA	600	Canal 7	BS07	01:00:00	01:59:59	0,1,0,0,0,0,0	2012-08-15	1	Televisión	Buenos Aires	DirectvMulti	12
El noticiero del Trece	ENDT	2500	Canal 13 DTV	BS13	13:00:00	14:29:59	0,1,1,1,1,1,0	2012-08-08	0	Televisión	Buenos Aires	DirectvMulti	6
Fiesta de la nieve	FIES	800	Canal 7	BS07	22:30:00	23:59:59	1,0,0,0,0,0,0	2012-08-15	0	Televisión	Buenos Aires	DirectvMulti	12
6 7 8	678	1400	Canal 7	BS07	21:30:00	22:29:59	1,0,0,0,0,0,0	2012-08-15	0	Televisión	Buenos Aires	DirectvMulti	12
Fútbol Para Todos	FPTO	1000	Canal 7	BS07	16:00:00	21:29:59	1,0,0,0,0,0,0	2012-08-15	0	Televisión	Buenos Aires	DirectvMulti	12
Otra Trama	OTRA	600	Canal 7	BS07	01:00:00	01:59:59	0,1,0,0,0,0,0	2012-08-15	0	Televisión	Buenos Aires	DirectvMulti	12
Impacto 9	IMPA	1600	Canal 9	BS09	20:00:00	21:59:59	1,0,0,0,0,0,0	2012-09-05	0	Televisión	Buenos Aires	DirectvMulti	3
Cine Para Todos	CIPT	145	Canal 7	BS07	01:30:00	04:29:59	0,0,0,0,0,0,1	2012-08-15	0	Televisión	Buenos Aires	DirectvMulti	12
Tendencia	TEND	3400	Canal 9	BS09	19:00:00	19:59:59	1,0,0,0,0,0,0	2012-09-05	0	Televisión	Buenos Aires	DirectvMulti	3
Cine	CINE	900	Canal 9	BS09	15:00:00	18:59:59	1,0,0,0,0,0,0	2012-09-05	0	Televisión	Buenos Aires	DirectvMulti	3
El Chavo	CHAV	600	Canal 9	BS09	12:00:00	14:59:09	1,0,0,0,0,0,0	2012-09-05	0	Televisión	Buenos Aires	DirectvMulti	3
Repetición Noche	REPE	10	Canal 9	BS09	03:30:00	05:59:59	1,1,0,0,0,0,0	2012-09-05	0	Televisión	Buenos Aires	DirectvMulti	3
Walker Texas	WALK	1150	Canal 13 DTV	BS13	02:30:00	03:29:59	1,0,0,0,0,0,0	2012-09-05	0	Televisión	Buenos Aires	DirectvMulti	6
El Show Creativo	SHOW	2000	Canal 9	BS09	01:30:00	02:29:59	1,0,0,0,0,0,0	2012-09-05	0	Televisión	Buenos Aires	DirectvMulti	3
Puerto Cultura	PUER	2300	Canal 9	BS09	00:30:00	01:30:00	1,0,0,0,0,0,0	2012-09-05	0	Televisión	Buenos Aires	DirectvMulti	3
TVR	TVR	4800	Canal 9	BS09	22:00:00	23:59:59	0,0,0,0,0,0,1	2012-09-05	0	Televisión	Buenos Aires	DirectvMulti	3
TVR	TVR	4800	Canal 9	BS09	00:00:00	00:29:59	1,0,0,0,0,0,0	2012-09-05	0	Televisión	Buenos Aires	DirectvMulti	3
Programación Regular Sábado	PRSA	900	Canal 9	BS09	16:00:00	21:59:59	0,0,0,0,0,0,1	2012-09-05	0	Televisión	Buenos Aires	DirectvMulti	3
Fiestas Argentinas	FIES	1700	Canal 9	BS09	15:00:00	15:59:59	0,0,0,0,0,0,1	2012-09-05	0	Televisión	Buenos Aires	DirectvMulti	3
Alma Gaucha	ALMA	1700	Canal 9	BS09	14:00:00	14:59:59	0,0,0,0,0,0,1	2012-09-05	0	Televisión	Buenos Aires	DirectvMulti	3
Sabor Argentina	SABO	1700	Canal 9	BS09	12:00:00	12:59:59	0,0,0,0,0,0,1	2012-09-05	0	Televisión	Buenos Aires	DirectvMulti	3
Jineteando	JINE	1700	Canal 9	BS09	13:00:00	13:59:59	0,0,0,0,0,0,1	2012-09-05	0	Televisión	Buenos Aires	DirectvMulti	3
El Chavo	ELCH	600	Canal 9	BS09	10:00:00	11:59:59	1,0,0,0,0,0,1	2012-09-05	0	Televisión	Buenos Aires	DirectvMulti	3
Prevenir	PREV	200	Canal 9	BS09	08:00:00	08:29:59	1,0,0,0,0,0,0	2012-09-05	0	Televisión	Buenos Aires	DirectvMulti	3
Paka Paka	PAKA	1000	Canal 9	BS09	08:30:00	09:59:59	1,0,0,0,0,0,1	2012-09-05	0	Televisión	Buenos Aires	DirectvMulti	3
Wolverine	WOLV	200	Canal 9	BS09	08:00:00	08:29:59	0,0,0,0,0,0,1	2012-09-05	0	Televisión	Buenos Aires	DirectvMulti	3
Dibujos Animados	DIBA	200	Canal 9	BS09	06:00:00	07:59:59	1,0,0,0,0,0,1	2012-09-05	0	Televisión	Buenos Aires	DirectvMulti	3
Iglesia Universal	IGLE	10	Canal 9	BS09	06:00:00	06:59:59	0,1,1,1,1,1,0	2012-09-05	0	Televisión	Buenos Aires	DirectvMulti	3
Telenueve Tercera Edición	TETE	1300	Canal 9	BS09	00:00:00	00:29:59	0,0,1,1,1,1,1	2012-09-05	0	Televisión	Buenos Aires	DirectvMulti	3
Repetición Noche	REPE	10	Canal 9	BS09	00:30:00	05:59:59	0,0,1,1,1,1,1	2012-09-05	0	Televisión	Buenos Aires	DirectvMulti	3
Sex and the city	SATC	2800	Canal 9	BS09	23:30:00	23:59:59	0,1,1,1,1,1,0	2012-09-05	0	Televisión	Buenos Aires	DirectvMulti	3
Duro de Domar	DDDM	3600	Canal 9	BS09	22:00:00	23:29:59	0,1,1,1,1,1,0	2012-09-05	0	Televisión	Buenos Aires	DirectvMulti	3
Bendita	BEND	3600	Canal 13 DTV	BS13	20:30:00	21:59:59	0,1,1,1,1,1,0	2012-09-05	0	Televisión	Buenos Aires	DirectvMulti	6
Telenueve Segunda Edición	TESE	3200	Canal 9	BS09	19:00:00	20:29:59	0,1,1,1,1,1,0	2012-09-05	0	Televisión	Buenos Aires	DirectvMulti	3
Yo soy Betty la fea	BETT	2000	Canal 9	BS09	16:00:00	16:59:59	0,1,1,1,1,1,0	2012-09-05	0	Televisión	Buenos Aires	DirectvMulti	3
Más Viviana	VIVI	2000	Canal 9	BS09	17:00:00	18:59:59	0,1,1,1,1,1,0	2012-09-05	0	Televisión	Buenos Aires	DirectvMulti	3
Cine del sábado III	CISA	3100	Telefé DTV	BS11	18:00:00	19:29:59	0,0,0,0,0,0,1	2012-08-07	0	Televisión	Buenos Aires	DirectvMulti	13
Periodismo para todos	PPTO	7000	Canal 13 DTV	BS13	22:00:00	23:59:59	1,0,0,0,0,0,0	2012-08-08	0	Televisión	Buenos Aires	DirectvMulti	6
Cine de la mañana	CIMA	1000	Telefé DTV	BS11	11:00:00	12:59:59	1,0,0,0,0,0,1	2012-08-07	0	Televisión	Buenos Aires	DirectvMulti	13
Z - Tv	ZTV	900	Telefé DTV	BS11	08:00:00	10:59:59	1,0,0,0,0,0,1	2012-08-07	0	Televisión	Buenos Aires	DirectvMulti	13
Diario de Medianoche	DMED	2300	Telefé DTV	BS11	01:00:00	01:29:59	0,0,0,0,1,0,0	2012-08-07	0	Televisión	Buenos Aires	DirectvMulti	13
El Donante	DONA	9000	Telefé DTV	BS11	00:00:00	00:59:59	0,0,0,0,1,0,0	2012-08-07	0	Televisión	Buenos Aires	DirectvMulti	13
Cocineros Argentinos Domingo	CCAD	700	Canal 7	BS07	14:00:00	15:29:59	1,0,0,0,0,0,0	2012-08-15	0	Televisión	Buenos Aires	DirectvMulti	12
Diario de Medianoche	DMED	2300	Telefé DTV	BS11	00:30:00	01:29:59	0,0,0,1,0,0,0	2012-08-07	0	Televisión	Buenos Aires	DirectvMulti	13
AMIA - El legado TV	AMIA	145	Canal 7	BS07	10:00:00	10:59:59	1,0,0,0,0,0,0	2012-08-15	0	Televisión	Buenos Aires	DirectvMulti	12
Automovilismo para todos	AUTO	100	Canal 7	BS07	11:00:00	13:59:59	1,0,0,0,0,0,0	2012-08-15	1	Televisión	Buenos Aires	DirectvMulti	12
Programación Regular - Madrugada	PMAD	100	E!	BS60	00:00:00	05:59:59	1,1,1,1,1,1,1	2012-07-19	0	Televisión	Buenos Aires Cable	Cablevision	6
Televenta Telefé	TEVE	0	Telefé DTV	BS11	01:30:00	06:29:59	0,1,1,1,1,1,0	2012-08-07	0	Televisión	Buenos Aires	DirectvMulti	13
Dulce Amor	DUAM	10700	Telefé DTV	BS11	23:00:00	23:59:59	0,1,1,1,1,1,0	2012-08-07	0	Televisión	Buenos Aires	DirectvMulti	13
Graduados	GRAD	10900	Telefé DTV	BS11	22:00:00	22:59:59	0,0,0,0,0,1,0	2012-08-07	0	Televisión	Buenos Aires	DirectvMulti	13
EL hombre de tu vida	EHTV	9000	Telefé DTV	BS11	22:00:00	22:59:59	0,0,0,0,1,0,0	2012-08-07	0	Televisión	Buenos Aires	DirectvMulti	13
La dueña	LDUE	9000	Telefé DTV	BS11	22:00:00	22:59:59	0,0,0,1,0,0,0	2012-08-07	0	Televisión	Buenos Aires	DirectvMulti	13
El cálamo y el mensaje	CALA	145	Canal 7	BS07	08:00:00	08:59:59	1,0,0,0,0,0,0	2012-08-15	1	Televisión	Buenos Aires	DirectvMulti	12
La otra voz	LOVO	9000	Telefé DTV	BS11	22:00:00	22:59:59	0,0,1,0,0,0,0	2012-08-07	0	Televisión	Buenos Aires	DirectvMulti	13
Los Simpsons	SIME	6000	Telefé DTV	BS11	21:00:00	21:59:59	0,0,0,0,0,1,0	2012-08-07	0	Televisión	Buenos Aires	DirectvMulti	13
Perdidos en la tribu	PERD	900	Telefé DTV	BS11	22:00:00	22:59:59	0,1,0,0,0,0,0	2012-08-07	0	Televisión	Buenos Aires	DirectvMulti	13
Graduados	GRAD	10900	Telefé DTV	BS11	21:00:00	21:59:59	0,1,1,1,1,0,0	2012-08-07	0	Televisión	Buenos Aires	DirectvMulti	13
Programación Regular - Mañana	PRMA	100	E!	BS60	06:00:00	06:59:59	1,1,1,1,1,1,1	2012-07-19	0	Televisión	Buenos Aires Cable	Cablevision	6
Programación Regular - Mañana	PRMA	100	E!	BS60	09:00:00	11:59:59	1,1,1,1,1,1,1	2012-07-19	0	Televisión	Buenos Aires Cable	Cablevision	6
Floricienta	FLOR	2400	Telefé DTV	BS11	18:00:00	19:59:59	0,1,1,1,1,1,0	2012-08-07	0	Televisión	Buenos Aires	DirectvMulti	13
Cine	CINE	2400	Telefé DTV	BS11	16:30:00	17:59:59	0,1,1,1,1,1,0	2012-08-07	0	Televisión	Buenos Aires	DirectvMulti	13
Casados con hijos	CCHI	2400	Telefé DTV	BS11	14:00:00	16:29:59	0,1,1,1,1,1,0	2012-08-07	0	Televisión	Buenos Aires	DirectvMulti	13
Programación Regular - Madrugada	PMAD	100	Canal 9 Cv	BSC09	00:00:00	05:59:59	1,1,1,1,1,1,1	2012-07-24	0	Televisión	Buenos Aires	Cablevision	2
Amorcito Corazón	AMOR	1600	Canal 9	BS09	14:00:00	14:59:59	0,1,1,1,1,1,0	2012-09-05	0	Televisión	Buenos Aires	DirectvMulti	3
Filmoteca	FILM	300	Canal 7	BS07	00:30:00	02:29:59	0,0,1,1,1,1,0	2012-08-15	0	Televisión	Buenos Aires	DirectvMulti	12
El kairós del Padre Farinella	KAIR	145	Canal 7	BS07	05:30:00	05:59:59	1,1,1,1,1,1,1	2012-08-15	0	Televisión	Buenos Aires	DirectvMulti	12
La Pelu	PELU	2300	Telefé DTV	BS11	12:00:00	12:59:59	0,1,1,1,1,1,0	2012-08-07	0	Televisión	Buenos Aires	DirectvMulti	13
Nación Zonambula	NAZO	145	Canal 7	BS07	07:00:00	07:59:59	1,0,0,0,0,0,0	2012-08-15	0	Televisión	Buenos Aires	DirectvMulti	12
Televenta A24	TEVE	0	A24	BS719	01:30:00	05:59:59	1,1,1,1,1,1,1	2012-12-12	1	Televisión	Buenos Aires Cable	DirectvMulti	1
Programación regular - Madrugada	PMAD	100	A24	BS719	00:00:00	01:29:59	1,1,1,1,1,1,1	2012-12-12	1	Televisión	Buenos Aires Cable	DirectvMulti	1
Noticias las 24 hs - Mañana	N241	100	Crónica TV	BS718	06:00:00	11:59:59	1,1,1,1,1,1,1	2012-02-01	0	Televisión	Buenos Aires Cable	DirectvMulti	8
Noticias las 24 hs - Tarde	N242	100	Crónica TV	BS718	12:00:00	17:59:59	1,1,1,1,1,1,1	2012-02-01	0	Televisión	Buenos Aires Cable	DirectvMulti	8
Noticias las 24 hs - Noche	N243	100	Crónica TV	BS718	18:00:00	23:59:59	1,1,1,1,1,1,1	2012-02-01	0	Televisión	Buenos Aires Cable	DirectvMulti	8
Noticias las 24 hs - Madrugada	N244	100	Crónica TV	BS718	00:00:00	05:59:59	1,1,1,1,1,1,1	2012-02-01	0	Televisión	Buenos Aires Cable	DirectvMulti	8
Televenta Casa Club TV	TEVE	0	Casa Club	BS230	10:00:00	12:29:59	1,1,1,1,1,1,1	2012-03-26	0	Televisión	Buenos Aires Cable	DirectvMulti	9
Programación Regular	PREG	100	Casa Club	BS230	00:00:00	09:59:59	1,1,1,1,1,1,1	2012-07-01	0	Televisión	Buenos Aires Cable	DirectvMulti	9
Programación Regular	PREG	100	Casa Club	BS230	12:30:00	23:59:59	1,1,1,1,1,1,1	2012-07-01	0	Televisión	Buenos Aires Cable	DirectvMulti	9
Televenta  DirecTV Live	TEVE	0	DirecTV Live	BS500	06:00:00	11:59:59	1,1,1,1,1,1,1	2012-02-01	0	Televisión	Buenos Aires Cable	DirectvMulti	11
Televenta  DirecTV Live	TEVE	0	DirecTV Live	BS500	12:00:00	17:59:59	1,1,1,1,1,1,1	2012-02-01	0	Televisión	Buenos Aires Cable	DirectvMulti	11
Televenta  DirecTV Live	TEVE	0	DirecTV Live	BS500	18:00:00	23:59:59	1,1,1,1,1,1,1	2012-02-01	0	Televisión	Buenos Aires Cable	DirectvMulti	11
Televenta  DirecTV Live	TEVE	0	DirecTV Live	BS500	00:00:00	05:59:59	1,1,1,1,1,1,1	2012-02-01	0	Televisión	Buenos Aires Cable	DirectvMulti	11
Programación Regular - Mañana	PRMA	100	Canal 9 Cv	BSC09	06:00:00	11:59:59	1,1,1,1,1,1,1	2012-07-24	0	Televisión	Buenos Aires	Cablevision	2
Programación Regular - Tarde	PRTA	100	Canal 9 Cv	BSC09	12:00:00	17:59:59	1,1,1,1,1,1,1	2012-07-24	0	Televisión	Buenos Aires	Cablevision	2
Programación Regular - Noche	PRNO	100	Canal 9 Cv	BSC09	18:00:00	23:59:59	1,1,1,1,1,1,1	2012-07-24	0	Televisión	Buenos Aires	Cablevision	2
Programación Regular - Mañana	PRMA	88	Cosmo	BS52	10:00:00	11:59:59	1,1,1,1,1,1,1	2012-02-01	0	Televisión	Buenos Aires Cable	Cablevision	10
Programación Regular - Tarde	PRTA	88	Cosmo	BS52	12:00:00	17:59:59	1,1,1,1,1,1,1	2012-02-01	0	Televisión	Buenos Aires Cable	Cablevision	10
Programación Regular - Noche	PRNO	88	Cosmo	BS52	18:00:00	23:59:59	1,1,1,1,1,1,1	2012-02-01	0	Televisión	Buenos Aires Cable	Cablevision	10
Programación Regular - Madrugada	PMAD	88	Cosmo	BS52	00:00:00	06:29:59	1,1,1,1,1,1,1	2012-02-01	0	Televisión	Buenos Aires Cable	Cablevision	10
Televenta Cosmopolitan TV	TEVE	0	Cosmo	BS52	06:30:00	09:59:59	1,1,1,1,1,1,1	2012-02-01	0	Televisión	Buenos Aires Cable	Cablevision	10
Programación Regular - Mañana	PRMA	65	Europa	BS43	10:00:00	11:59:59	1,1,1,1,1,1,1	2012-02-01	1	Televisión	Buenos Aires Cable	Cablevision	11
Programación Regular - Tarde	PRTA	65	Europa	BS43	12:00:00	17:59:59	1,1,1,1,1,1,1	2012-02-01	0	Televisión	Buenos Aires Cable	Cablevision	11
Programación Regular - Noche	PRNO	65	Europa	BS43	18:00:00	23:59:59	1,1,1,1,1,1,1	2012-02-01	0	Televisión	Buenos Aires Cable	Cablevision	11
Programación Regular - Madrugada	PMAD	65	Europa	BS43	00:00:00	06:29:59	1,1,1,1,1,1,1	2012-02-01	1	Televisión	Buenos Aires Cable	Cablevision	11
Televenta Europa Europa	TEVE	100	Europa	BS43	06:30:00	09:59:59	1,1,1,1,1,1,1	2012-02-01	1	Televisión	Buenos Aires Cable	Cablevision	11
Programación Regular - Mañana	PRMA	70	History Channel	BS59	09:00:00	11:59:59	1,1,1,1,1,1,1	2012-02-01	0	Televisión	Buenos Aires Cable	Cablevision	12
Programación Regular - Tarde	PRTA	70	History Channel	BS59	12:00:00	17:59:59	1,1,1,1,1,1,1	2012-02-01	0	Televisión	Buenos Aires Cable	Cablevision	12
Programación Regular - Noche	PRNO	70	History Channel	BS59	18:00:00	23:59:59	1,1,1,1,1,1,1	2012-02-01	0	Televisión	Buenos Aires Cable	Cablevision	12
Programación Regular - Madrugada	PMAD	70	History Channel	BS59	00:00:00	07:29:59	1,1,1,1,1,1,1	2012-02-01	0	Televisión	Buenos Aires Cable	Cablevision	12
Televenta History Channel	TEVE	0	History Channel	BS59	07:30:00	08:59:59	1,1,1,1,1,1,1	2012-02-01	0	Televisión	Buenos Aires Cable	Cablevision	12
Programación Regular - Mañana	PRMA	70	Fox	BS38	06:00:00	11:59:59	1,1,1,1,1,1,1	2012-02-01	0	Televisión	Buenos Aires Cable	DirectvMulti	5
Programación Regular - Tarde	PRTA	70	Fox	BS38	12:00:00	17:59:59	1,1,1,1,1,1,1	2012-02-01	0	Televisión	Buenos Aires Cable	DirectvMulti	5
Programación Regular - Noche	PRNO	70	Fox	BS38	18:00:00	23:59:59	1,1,1,1,1,1,1	2012-02-01	0	Televisión	Buenos Aires Cable	DirectvMulti	5
Programación Regular - Madrugada	PMAD	70	Fox	BS38	00:00:00	05:59:59	1,1,1,1,1,1,1	2012-02-01	0	Televisión	Buenos Aires Cable	DirectvMulti	5
Programación Regular - Mañana	PRMA	70	Discovery	BS62	03:00:00	11:59:59	0,1,1,1,1,1,0	2012-02-01	0	Televisión	Buenos Aires Cable	Cablevision	5
Programación Regular - Mañana	PRMA	70	Discovery	BS62	09:00:00	11:59:59	1,0,0,0,0,0,1	2012-02-01	0	Televisión	Buenos Aires Cable	Cablevision	5
Programación Regular - Tarde	PRTA	70	Discovery	BS62	12:00:00	17:59:59	1,1,1,1,1,1,1	2012-02-01	0	Televisión	Buenos Aires Cable	Cablevision	5
Programación Regular - Noche	PRNO	70	Discovery	BS62	18:00:00	23:59:59	1,1,1,1,1,1,1	2012-02-01	0	Televisión	Buenos Aires Cable	Cablevision	5
Programación Regular - Madrugada	PMAD	70	Discovery	BS62	00:00:00	00:59:59	1,1,1,1,1,1,1	2012-02-01	0	Televisión	Buenos Aires Cable	Cablevision	5
Programación Regular - Madrugada	PMAD	70	Discovery	BS62	00:00:00	06:59:59	1,0,0,0,0,0,1	2012-02-01	0	Televisión	Buenos Aires Cable	Cablevision	5
Televenta Discovery Channel	TELE	0	Discovery	BS62	01:00:00	02:59:59	0,1,1,1,1,1,0	2012-02-01	0	Televisión	Buenos Aires Cable	Cablevision	5
Televenta Discovery Channel	TELE	0	Discovery	BS62	07:00:00	08:59:59	1,0,0,0,0,0,1	2012-02-01	0	Televisión	Buenos Aires Cable	Cablevision	5
Programación Regular - Mañana	PRMA	70	FX Channel	BS41	06:00:00	11:59:59	1,1,1,1,1,1,1	2012-02-01	0	Televisión	Buenos Aires Cable	Cablevision	1
Programación Regular - Tarde	PRTA	70	FX Channel	BS41	12:00:00	17:59:59	1,1,1,1,1,1,1	2012-02-01	0	Televisión	Buenos Aires Cable	Cablevision	1
Programación Regular - Noche	PRNO	70	FX Channel	BS41	18:00:00	23:59:59	1,1,1,1,1,1,1	2012-02-01	0	Televisión	Buenos Aires Cable	Cablevision	1
Programación Regular - Madrugada	PMAD	70	FX Channel	BS41	00:00:00	05:59:59	1,1,1,1,1,1,1	2012-02-01	0	Televisión	Buenos Aires Cable	Cablevision	1
EL cine que nos mira	EQNM	600	Canal 7	BS07	22:00:00	23:59:59	0,0,0,0,0,0,1	2012-08-15	0	Televisión	Buenos Aires	DirectvMulti	12
Programación Regular - Madrugada	PMAD	100	A24	BS719	00:00:00	01:29:59	1,1,1,1,1,1,1	2013-01-01	0	Televisión	Buenos Aires Cable	DirectvMulti	1
Programación Regular - Mañana	PRMA	70	Animal Planet	BS57	09:30:00	11:59:59	1,1,1,1,1,1,1	2012-02-01	0	Televisión	Buenos Aires Cable	Cablevision	4
Programación Regular - Tarde	PRTA	70	Animal Planet	BS57	12:00:00	17:59:59	1,1,1,1,1,1,1	2012-02-01	0	Televisión	Buenos Aires Cable	Cablevision	4
Programación Regular - Noche	PRNO	70	Animal Planet	BS57	18:00:00	23:59:59	1,1,1,1,1,1,1	2012-02-01	0	Televisión	Buenos Aires Cable	Cablevision	4
Programación Regular - Madrugada	PMAD	70	Animal Planet	BS57	00:00:00	01:59:59	1,1,1,1,1,1,1	2012-02-01	0	Televisión	Buenos Aires Cable	Cablevision	4
Programación Regular - Madrugada	PMAD	70	Animal Planet	BS57	03:00:00	09:29:59	1,1,1,1,1,1,1	2012-02-01	0	Televisión	Buenos Aires Cable	Cablevision	4
Programación Regular - Madrugada	PMAD	70	Animal Planet	BS57	02:00:00	02:59:59	1,0,0,0,0,0,1	2012-02-01	0	Televisión	Buenos Aires Cable	Cablevision	4
Televenta Animal Planet	TEVE	0	Animal Planet	BS57	02:00:00	02:59:59	0,1,1,1,1,1,0	2012-02-01	0	Televisión	Buenos Aires Cable	Cablevision	4
Programación Regular - Mañana	PRMA	70	National Geo	BS55	06:00:00	11:59:59	1,1,1,1,1,1,1	2012-02-01	0	Televisión	Buenos Aires Cable	Cablevision	7
Programación Regular - Tarde	PRTA	70	National Geo	BS55	12:00:00	17:59:59	1,1,1,1,1,1,1	2012-02-01	0	Televisión	Buenos Aires Cable	Cablevision	7
Programación Regular - Noche	PRNO	70	National Geo	BS55	18:00:00	23:59:59	1,1,1,1,1,1,1	2012-02-01	0	Televisión	Buenos Aires Cable	Cablevision	7
Programación Regular - Madrugada	PMAD	70	National Geo	BS55	00:00:00	05:59:59	1,1,1,1,1,1,1	2012-02-01	0	Televisión	Buenos Aires Cable	Cablevision	7
Programación Regular - Mañana	PRMA	70	Universal Channel 	BS39	06:00:00	11:59:59	1,1,1,1,1,1,1	2012-02-01	0	Televisión	Buenos Aires Cable	Cablevision	9
Programación Regular - Tarde	PRTA	70	Universal Channel 	BS39	12:00:00	17:59:59	1,1,1,1,1,1,1	2012-02-01	0	Televisión	Buenos Aires Cable	Cablevision	9
Programación Regular - Noche	PRNO	70	Universal Channel 	BS39	18:00:00	23:59:59	1,1,1,1,1,1,1	2012-02-01	0	Televisión	Buenos Aires Cable	Cablevision	9
Programación Regular - Madrugada	PMAD	70	Universal Channel 	BS39	00:00:00	05:59:59	1,1,1,1,1,1,1	2012-02-01	0	Televisión	Buenos Aires Cable	Cablevision	9
Programación Regular - Tarde	PRTA	70	CN23	BS721	12:00:00	17:59:59	1,1,1,1,1,1,1	2012-02-01	0	Televisión	Buenos Aires Cable	DirectvMulti	10
Programación Regular - Noche	PRNO	70	CN23	BS721	18:00:00	23:59:59	1,1,1,1,1,1,1	2012-02-01	0	Televisión	Buenos Aires Cable	DirectvMulti	10
Científicos Industria Argentina	CINA	300	Canal 7	BS07	11:30:00	12:29:59	0,0,0,0,0,0,1	2012-08-15	0	Televisión	Buenos Aires	DirectvMulti	12
Visión 7 Internacional	VISI	1000	Canal 7	BS07	12:30:00	13:59:59	0,0,0,0,0,0,1	2012-08-08	0	Televisión	Buenos Aires	DirectvMulti	12
Fútbol Para Todos	FPTO	1000	Canal 7	BS07	14:00:00	20:29:59	0,0,0,0,0,0,1	2012-08-15	0	Televisión	Buenos Aires	DirectvMulti	12
Visión 7 Sábado	VISA	1000	Canal 7	BS07	20:30:00	20:59:59	0,0,0,0,0,0,1	2012-08-15	0	Televisión	Buenos Aires	DirectvMulti	12
Caminos de Tiza	CAMI	145	Canal 7	BS07	07:00:00	07:29:59	0,0,0,0,0,0,1	2012-08-15	0	Televisión	Buenos Aires	DirectvMulti	12
Ejército Argentino	EJER	145	Canal 7	BS07	07:30:00	07:59:59	0,0,0,0,0,0,1	2012-08-15	0	Televisión	Buenos Aires	DirectvMulti	12
Los Siete Locos	LSLO	145	Canal 7	BS07	08:00:00	08:59:59	0,0,0,0,0,0,1	2012-08-15	0	Televisión	Buenos Aires	DirectvMulti	12
Programación Regular - Mañana	PRMA	70	Discovery Travel & Living	BS740	03:00:00	11:59:59	1,1,1,1,1,1,1	2012-02-01	0	Televisión	Buenos Aires Cable	Cablevision	8
Programación Regular - Tarde	PRTA	70	Discovery Travel & Living	BS740	12:00:00	17:59:59	1,1,1,1,1,1,1	2012-02-01	0	Televisión	Buenos Aires Cable	Cablevision	8
Programación Regular - Noche	PRNO	70	Discovery Travel & Living	BS740	18:00:00	23:59:59	1,1,1,1,1,1,1	2012-02-01	0	Televisión	Buenos Aires Cable	Cablevision	8
Programación Regular - Madrugada	PMAD	70	Discovery Travel & Living	BS740	00:00:00	01:29:59	1,1,1,1,1,1,1	2012-02-01	0	Televisión	Buenos Aires Cable	Cablevision	8
Televenta Discovery Travel	TEVE	0	Discovery Travel & Living	BS740	01:30:00	02:59:59	1,1,1,1,1,1,1	2012-02-17	0	Televisión	Buenos Aires Cable	Cablevision	8
Programación Regular - Tarde	PRTA	100	E!	BS60	12:00:00	17:59:59	1,1,1,1,1,1,1	2012-07-19	0	Televisión	Buenos Aires Cable	Cablevision	6
Programación Regular - Noche	PRNO	100	E!	BS60	18:00:00	23:59:59	1,1,1,1,1,1,1	2012-07-19	0	Televisión	Buenos Aires Cable	Cablevision	6
Cine de Siempre	CISP	145	Canal 7	BS07	02:00:00	03:29:59	1,0,0,0,0,0,0	2012-08-15	0	Televisión	Buenos Aires	DirectvMulti	12
Historias Argentinas	HISA	700	Canal 7	BS07	21:00:00	21:59:59	0,0,0,0,0,0,1	2012-08-15	0	Televisión	Buenos Aires	DirectvMulti	12
Televenta América	TEVE	0	América DTV	BS02	01:00:00	08:29:59	1,0,0,0,0,0,1	2012-08-08	0	Televisión	Buenos Aires	DirectvMulti	7
Un refucio para el amor	UNRE	2000	Canal 9	BS09	15:00:00	15:59:59	0,1,1,1,1,1,0	2012-09-05	0	Televisión	Buenos Aires	DirectvMulti	3
Televenta América	TEVE	0	América DTV	BS02	01:00:00	05:59:59	0,1,1,1,1,1,0	2012-08-08	0	Televisión	Buenos Aires	DirectvMulti	7
Desde la vida	DESD	145	Canal 7	BS07	10:30:00	11:29:59	0,0,0,0,0,0,1	2012-08-15	0	Televisión	Buenos Aires	DirectvMulti	12
Telenueve Primera Edición	TEPR	1600	Canal 9	BS09	12:00:00	12:59:59	0,1,1,1,1,1,0	2012-09-05	0	Televisión	Buenos Aires	DirectvMulti	3
Marimar	MARI	1600	Canal 9	BS09	13:00:00	13:59:59	0,1,1,1,1,1,0	2012-09-05	0	Televisión	Buenos Aires	DirectvMulti	3
Televenta E!	TEVE	0	E!	BS60	07:00:00	08:59:59	1,1,1,1,1,1,1	2012-07-19	0	Televisión	Buenos Aires Cable	Cablevision	6
Caja Rodante	CAJA	145	Canal 7	BS07	09:30:00	10:29:59	0,0,0,0,0,0,1	2012-08-15	0	Televisión	Buenos Aires	DirectvMulti	12
Televenta MGM	TEVE	0	MGM	BS51	08:00:00	12:00:00	1,1,1,1,1,1,1	2012-03-15	0	Televisión	Buenos Aires Cable	DirectvMulti	2
La cocina del 9	COCI	1600	Canal 9	BS09	11:00:00	11:59:59	0,1,1,1,1,1,0	2012-09-05	0	Televisión	Buenos Aires	DirectvMulti	3
Programación Regular	PREG	100	MGM	BS51	12:00:00	23:59:59	1,1,1,1,1,1,1	2012-07-01	0	Televisión	Buenos Aires Cable	DirectvMulti	2
Solo para reir	SOLO	1200	Canal 13 DTV	BS13	00:30:00	00:59:59	0,1,0,0,0,0,0	2012-08-08	0	Televisión	Buenos Aires	DirectvMulti	6
Este es el show	EEES	2200	Canal 13 DTV	BS13	14:30:00	17:29:59	0,1,1,1,1,1,0	2012-08-08	0	Televisión	Buenos Aires	DirectvMulti	6
Cuestión de peso	CPES	1800	Canal 13 DTV	BS13	17:30:00	18:59:59	0,1,1,1,1,1,0	2012-08-08	0	Televisión	Buenos Aires	DirectvMulti	6
A todo o nada	ATON	2500	Canal 13 DTV	BS13	19:00:00	19:59:59	0,1,1,1,1,1,0	2012-08-08	0	Televisión	Buenos Aires	DirectvMulti	6
Madres de la plaza	MADR	300	Canal 7	BS07	09:00:00	09:29:59	0,0,0,0,0,0,1	2012-08-15	0	Televisión	Buenos Aires	DirectvMulti	12
Programación Regular - Madrugada	PMAD	25	Fox Life	BS219	00:00:00	05:59:00	1,1,1,1,1,1,1	2012-03-29	0	Televisión	Buenos Aires Cable	DirectvMulti	4
Programación Regular -  Mañana	PRMA	25	Fox Life	BS219	06:00:00	11:59:00	1,1,1,1,1,1,1	2012-03-29	0	Televisión	Buenos Aires Cable	DirectvMulti	4
Programación Regular - Tarde	PRTA	25	Fox Life	BS219	12:00:00	17:59:00	1,1,1,1,1,1,1	2012-03-29	0	Televisión	Buenos Aires Cable	DirectvMulti	4
Programación Regular - Noche	PRNO	25	Fox Life	BS219	18:00:00	23:59:00	1,1,1,1,1,1,1	2012-03-29	0	Televisión	Buenos Aires Cable	DirectvMulti	4
Programación Regular - Madrugada	PMAD	25	ID	BS49	03:10:00	05:59:00	0,1,1,1,1,1,0	2012-03-29	0	Televisión	Buenos Aires Cable	Cablevision	16
Programación Regular - Mañana	PRMA	25	ID	BS49	06:00:00	11:59:00	1,1,1,1,1,1,1	2012-03-29	0	Televisión	Buenos Aires Cable	Cablevision	16
Programación Regular - Tarde	PRTA	25	ID	BS49	12:00:00	17:59:00	1,1,1,1,1,1,1	2012-03-29	0	Televisión	Buenos Aires Cable	Cablevision	16
Programación Regular - Noche	PRNO	25	ID	BS49	18:00:00	23:59:00	1,1,1,1,1,1,1	2012-03-29	0	Televisión	Buenos Aires Cable	Cablevision	16
Programación Regular - Madrugada	PMAD	25	Home & Health	BS405	00:00:00	01:59:00	1,1,1,1,1,1,1	2012-03-29	0	Televisión	Buenos Aires Cable	Cablevision	14
Programación Regular - Mañana	PRMA	25	Home & Health	BS405	06:00:00	11:59:00	1,1,1,1,1,1,1	2012-03-29	0	Televisión	Buenos Aires Cable	Cablevision	14
Programación Regular - Tarde	PRTA	25	Home & Health	BS405	12:00:00	17:59:00	1,1,1,1,1,1,1	2012-03-29	0	Televisión	Buenos Aires Cable	Cablevision	14
Programación Regular - Noche	PRNO	25	Home & Health	BS405	18:00:00	23:59:00	1,1,1,1,1,1,1	2012-03-29	0	Televisión	Buenos Aires Cable	Cablevision	14
Programación Regular - Madrugada	PMAD	25	Sony Entertainment	BS42	00:00:00	05:59:59	1,1,1,1,1,1,1	2012-03-29	0	Televisión	Buenos Aires Cable	Cablevision	15
Programación Regular - Mañana	PRMA	25	Sony Entertainment	BS42	06:00:00	11:59:59	1,1,1,1,1,1,1	2012-03-29	0	Televisión	Buenos Aires Cable	Cablevision	15
Los Siete Locos	LSLO	145	Canal 7	BS07	08:00:00	08:59:59	0,0,0,0,0,0,1	2012-08-15	1	Televisión	Buenos Aires	DirectvMulti	12
Visión 7 Primera Mañana	VIMA	200	Canal 7	BS07	07:00:00	08:59:59	0,1,1,1,1,1,0	2012-08-15	0	Televisión	Buenos Aires	DirectvMulti	12
Red de salud	REDS	300	Canal 7	BS07	09:00:00	09:59:59	0,1,1,1,1,1,0	2012-08-15	0	Televisión	Buenos Aires	DirectvMulti	12
Mil manos	MILM	300	Canal 7	BS07	10:00:00	11:29:59	0,1,1,1,1,1,0	2012-08-15	0	Televisión	Buenos Aires	DirectvMulti	12
Desde la tierra	DESD	145	Canal 7	BS07	06:00:00	06:59:59	1,0,0,0,0,0,1	2012-08-15	0	Televisión	Buenos Aires	DirectvMulti	12
Programación Regular - Madrugada	PMAD	25	ID	BS49	00:00:00	01:59:00	0,1,1,1,1,1,0	2012-03-25	0	Televisión	Buenos Aires Cable	Cablevision	16
Televenta ID	TEVE	0	ID	BS49	02:00:00	03:09:59	0,1,1,1,1,1,0	2012-02-25	0	Televisión	Buenos Aires Cable	Cablevision	16
Al Natural	ANAT	145	Canal 7	BS07	04:29:59	05:29:59	0,0,1,0,0,0,1	2012-08-15	0	Televisión	Buenos Aires	DirectvMulti	12
Programación Regular - Noche	PRNO	100	El Gourmet	BS50	18:00:00	23:59:59	1,1,1,1,1,1,1	2012-07-04	0	Televisión	Buenos Aires Cable	Cablevision	13
Arriba Argentinos	ARAR	1900	Canal 13 DTV	BS13	07:00:00	09:29:59	0,1,1,1,1,1,0	2012-08-08	0	Televisión	Buenos Aires	DirectvMulti	6
Programación Regular - Tarde	PRTA	100	El Gourmet	BS50	12:00:00	17:59:59	1,1,1,1,1,1,1	2012-07-04	0	Televisión	Buenos Aires Cable	Cablevision	13
Visión 7 Mediodía	VIME	350	Canal 7	BS07	13:00:00	13:59:59	0,1,1,1,1,1,0	2012-08-15	0	Televisión	Buenos Aires	DirectvMulti	12
Programación Regular - Mañana	PRMA	100	El Gourmet	BS50	08:00:00	11:59:59	1,1,1,1,1,1,1	2012-07-04	0	Televisión	Buenos Aires Cable	Cablevision	13
Programación Regular - Madrugada	PMAD	100	El Gourmet	BS50	00:00:00	06:59:59	1,1,1,1,1,1,1	2012-07-04	0	Televisión	Buenos Aires Cable	Cablevision	13
Cine para todos	CINT	145	Canal 7	BS07	02:30:00	04:29:59	0,0,1,1,1,1,1	2012-08-15	1	Televisión	Buenos Aires	DirectvMulti	12
ShowMatch	SHMT	10800	Canal 13 DTV	BS13	22:00:00	23:59:59	0,1,1,0,1,1,0	2012-08-08	0	Televisión	Buenos Aires	DirectvMulti	6
Visión 7 Medianoche	VIME	700	Canal 7	BS07	00:00:00	00:29:59	0,0,1,1,1,1,0	2012-08-15	0	Televisión	Buenos Aires	DirectvMulti	12
Televenta Home & Health	TEVE	0	Home & Health	BS405	02:00:00	02:59:00	1,1,1,1,1,1,1	2012-04-10	0	Televisión	Buenos Aires Cable	Cablevision	14
Cine Para Todos	CIPT	145	Canal 7	BS07	04:00:00	05:29:59	0,0,0,1,1,1,0	2012-08-15	0	Televisión	Buenos Aires	DirectvMulti	12
Programación Regular - Madrugada	PMAD	25	Home & Health	BS405	03:00:00	05:59:00	1,1,1,1,1,1,1	2012-04-10	0	Televisión	Buenos Aires Cable	Cablevision	14
Los misterios de Laura	MLAU	1000	Canal 7	BS07	22:30:00	23:59:59	0,1,1,1,1,0,0	2012-08-15	0	Televisión	Buenos Aires	DirectvMulti	12
6 7 8	678	1400	Canal 7	BS07	21:00:00	22:29:59	0,1,1,1,1,1,0	2012-08-15	0	Televisión	Buenos Aires	DirectvMulti	12
Encuentro	ENCU	700	Canal 7	BS07	19:00:00	19:59:59	0,1,1,1,1,0,0	2012-08-15	0	Televisión	Buenos Aires	DirectvMulti	12
Televenta Canal 13	TELE	0	Canal 13 DTV	BS13	01:30:00	06:59:00	0,0,0,1,0,0,0	2012-04-10	0	Televisión	Buenos Aires	DirectvMulti	6
Paka Paka	PAKA	700	Canal 7	BS07	17:30:00	18:59:59	0,1,1,1,1,0,0	2012-08-15	0	Televisión	Buenos Aires	DirectvMulti	12
En Síntesis	ESIN	2400	Canal 13 DTV	BS13	00:00:00	00:29:59	0,0,1,1,0,1,1	2012-08-08	0	Televisión	Buenos Aires	DirectvMulti	6
Programación Regular - Madrugada	PMAD	25	ID	BS49	00:00:00	05:59:00	1,0,0,0,0,0,1	2012-04-16	0	Televisión	Buenos Aires Cable	Cablevision	16
Con sentido público	CSPU	700	Canal 7	BS07	16:00:00	17:29:59	0,1,1,1,1,1,0	2012-08-15	0	Televisión	Buenos Aires	DirectvMulti	12
Vivo en Argentina	VIVO	700	Canal 7	BS07	14:00:00	15:59:59	0,1,1,1,1,1,0	2012-08-15	0	Televisión	Buenos Aires	DirectvMulti	12
Programación Regular - Tarde	PRTA	25	Sony Entertainment	BS42	12:00:00	17:59:59	1,1,1,1,1,1,1	2012-05-08	0	Televisión	Buenos Aires Cable	Cablevision	15
Cocineros Argentinos	COAR	700	Canal 7	BS07	11:30:00	12:59:59	0,1,1,1,1,1,0	2012-08-15	0	Televisión	Buenos Aires	DirectvMulti	12
Programación Regular - Noche	PRNO	25	Sony Entertainment	BS42	18:00:00	23:59:59	1,1,1,1,1,1,1	2012-05-08	0	Televisión	Buenos Aires Cable	Cablevision	15
Cine para todos	CIPT	145	Canal 7	BS07	03:30:00	05:29:59	1,0,0,0,0,0,0	2012-08-15	0	Televisión	Buenos Aires	DirectvMulti	12
Visión 7 - Nadia 630	VISI	200	Canal 7	BS07	06:30:00	06:59:59	0,1,1,1,1,1,0	2012-08-15	0	Televisión	Buenos Aires	DirectvMulti	12
Telefé Noticias	TENO	2500	Telefé DTV	BS11	13:00:00	13:59:59	0,1,1,1,1,1,0	2012-08-07	0	Televisión	Buenos Aires	DirectvMulti	13
AM	AM	1700	Telefé DTV	BS11	10:00:00	11:59:59	0,1,1,1,1,1,0	2012-08-07	0	Televisión	Buenos Aires	DirectvMulti	13
BAires Directo	BADI	1200	Telefé DTV	BS11	08:00:00	09:59:59	0,1,1,1,1,1,0	2012-08-07	0	Televisión	Buenos Aires	DirectvMulti	13
Z - Tv	ZTV	1000	Telefé DTV	BS11	06:30:00	07:59:59	0,1,1,1,1,1,0	2012-08-07	0	Televisión	Buenos Aires	DirectvMulti	13
Programación Regular - Mañana	PRMA	100	A24	BS719	06:00:00	11:59:59	1,1,1,1,1,1,1	2013-01-01	0	Televisión	Buenos Aires Cable	DirectvMulti	1
Telenueve a la mañana	TEMA	1300	Canal 9	BS09	08:00:00	10:59:59	0,1,1,1,1,1,0	2012-09-05	0	Televisión	Buenos Aires	DirectvMulti	3
Paka Paka	PAKA	1000	Canal 9	BS09	07:00:00	07:59:59	0,1,1,1,1,1,0	2012-09-05	0	Televisión	Buenos Aires	DirectvMulti	3
Gracias por venir	GRAC	4200	Telefé DTV	BS11	19:30:00	21:29:59	0,0,0,0,0,0,1	2012-08-07	0	Televisión	Buenos Aires	DirectvMulti	13
Cine - Historias de la vida real	CIHI	4300	Telefé DTV	BS11	21:30:00	23:29:59	0,0,0,0,0,0,1	2012-08-07	0	Televisión	Buenos Aires	DirectvMulti	13
Casados con hijos	CCHI	4200	Telefé DTV	BS11	23:30:00	23:59:59	0,0,0,0,0,0,1	2012-08-07	0	Televisión	Buenos Aires	DirectvMulti	13
Casados con hijos	CCHI	4200	Telefé DTV	BS11	00:00:00	00:29:59	1,0,0,0,0,0,0	2012-08-07	0	Televisión	Buenos Aires	DirectvMulti	13
Hiperconectados	HIPE	1100	Telefé DTV	BS11	00:30:00	01:29:59	1,0,0,0,0,0,0	2012-08-07	0	Televisión	Buenos Aires	DirectvMulti	13
Cine Top	CITO	1400	Canal 13 DTV	BS13	17:00:00	19:59:59	1,0,0,0,0,0,0	2012-08-08	0	Televisión	Buenos Aires	DirectvMulti	6
Cantando 2012	CANT	5000	Canal 13 DTV	BS13	20:00:00	21:59:59	1,0,0,0,0,0,0	2012-08-08	0	Televisión	Buenos Aires	DirectvMulti	6
Todo es posible	TODO	7000	Telefé DTV	BS11	21:00:00	21:59:59	1,0,0,0,0,0,0	2012-08-07	0	Televisión	Buenos Aires	DirectvMulti	13
La Voz Argentina	LVOZ	10200	Telefé DTV	BS11	22:00:00	23:59:59	1,0,0,0,0,0,0	2012-08-07	0	Televisión	Buenos Aires	DirectvMulti	13
Glee	GLEE	1200	Telefé DTV	BS11	00:00:00	01:29:59	0,1,0,0,0,0,0	2012-08-07	0	Televisión	Buenos Aires	DirectvMulti	13
Televenta Telefé	TEVE	0	Telefé DTV	BS11	01:30:00	08:00:00	1,0,0,0,0,0,1	2012-08-07	0	Televisión	Buenos Aires	DirectvMulti	13
Sin Codificar	SINC	1400	América DTV	BS02	13:00:00	15:29:59	1,0,0,0,0,0,0	2012-08-08	0	Televisión	Buenos Aires	DirectvMulti	7
Programación Regular - Tarde	PRTA	1400	América DTV	BS02	17:00:00	18:59:59	1,0,0,0,0,0,0	2012-08-08	0	Televisión	Buenos Aires	DirectvMulti	7
América Noticias	AMNO	1600	América DTV	BS02	19:00:00	19:59:59	1,0,0,0,0,0,0	2012-08-08	0	Televisión	Buenos Aires	DirectvMulti	7
Ponele la firma	PONE	2000	América DTV	BS02	20:00:00	21:29:59	1,0,0,0,0,0,0	2012-08-08	0	Televisión	Buenos Aires	DirectvMulti	7
La Cornisa	LCOR	2200	América DTV	BS02	21:30:00	22:59:59	1,0,0,0,0,0,0	2012-08-08	0	Televisión	Buenos Aires	DirectvMulti	7
Show del fútbol	SHOW	2400	América DTV	BS02	23:00:00	23:59:59	1,0,0,0,0,0,0	2012-08-08	0	Televisión	Buenos Aires	DirectvMulti	7
Show del fútbol	SHOW	2400	América DTV	BS02	00:00:00	00:59:59	0,1,0,0,0,0,0	2012-08-08	0	Televisión	Buenos Aires	DirectvMulti	7
Programación Regular - Madrugada	PMAD	100	AXN	BS214	00:00:00	05:59:59	1,1,1,1,1,1,1	2012-10-17	0	Televisión	Buenos Aires Cable	Directv Multi	14
Programación Regular - Mañana	PRMA	100	AXN	BS214	06:00:00	11:59:59	1,1,1,1,1,1,1	2012-10-17	0	Televisión	Buenos Aires Cable	Directv Multi	14
Programación Regular - Noche	PRNO	100	AXN	BS214	18:00:00	23:59:59	1,1,1,1,1,1,1	2012-10-17	0	Televisión	Buenos Aires Cable	Directv Multi	14
Programación Regular - Tarde	PRTA	100	AXN	BS214	12:00:00	17:59:59	1,1,1,1,1,1,1	2012-10-17	0	Televisión	Buenos Aires Cable	Directv Multi	14
Programación Regular - Madrugada	PMAD	100	Warner	BS225	00:00:00	05:59:59	1,1,1,1,1,1,1	2012-10-17	0	Televisión	Buenos Aires Cable	DirectvMulti	15
Programación Regular - Mañana	PRMA	100	Warner	BS225	06:00:00	11:59:59	1,1,1,1,1,1,1	2012-10-17	0	Televisión	Buenos Aires Cable	DirectvMulti	15
Programación Regular - Tarde	PRTA	100	Warner	BS225	12:00:00	17:59:59	1,1,1,1,1,1,1	2012-10-17	0	Televisión	Buenos Aires Cable	DirectvMulti	15
Programación Regular - Noche	PRNO	100	Warner	BS225	18:00:00	23:59:59	1,1,1,1,1,1,1	2012-10-17	0	Televisión	Buenos Aires Cable	DirectvMulti	15
Programación Regular - Madrugada	PMAD	100	A&E Mundo	BS207	00:00:00	05:59:59	1,1,1,1,1,1,1	2012-11-01	0	Televisión	Buenos Aires Cable	Cablevision	3
Programación Regular - Mañana	PRMA	100	A&E Mundo	BS207	06:00:00	08:59:59	1,1,1,1,1,1,1	2012-11-01	0	Televisión	Buenos Aires Cable	Cablevision	3
Televenta A&E Mundo	TEVE	0	A&E Mundo	BS207	09:00:00	09:59:59	1,1,1,1,1,1,1	2012-11-01	0	Televisión	Buenos Aires Cable	Cablevision	3
Programación Regular - Mañana	PRMA	100	A&E Mundo	BS207	10:00:00	11:59:59	1,1,1,1,1,1,1	2012-11-01	0	Televisión	Buenos Aires Cable	Cablevision	3
Programación Regular - Tarde	PRTA	100	A&E Mundo	BS207	12:00:00	17:59:59	1,1,1,1,1,1,1	2012-11-01	0	Televisión	Buenos Aires Cable	Cablevision	3
Programación Regular - Noche	PRNO	100	A&E Mundo	BS207	18:00:00	23:59:59	1,1,1,1,1,1,1	2012-11-01	0	Televisión	Buenos Aires Cable	Cablevision	3
Programación regular - Mañana	PRMA	100	A24	BS719	06:00:00	11:59:59	1,1,1,1,1,1,1	2012-12-12	1	Televisión	Buenos Aires Cable	DirectvMulti	1
Programación regular - Tarde	PRTA	100	A24	BS719	12:00:00	17:59:59	1,1,1,1,1,1,1	2012-12-12	1	Televisión	Buenos Aires Cable	DirectvMulti	1
Programación regular - Noche	PRNO	100	A24	BS719	18:00:00	23:59:59	1,1,1,1,1,1,1	2012-12-12	1	Televisión	Buenos Aires Cable	DirectvMulti	1
Deseo Prohibido	DPRO	115	Canal 13 DTV	BS13	12:00:00	12:59:59	0,1,1,1,1,1,0	2012-12-24	0	Televisión	Buenos Aires	DirectvMulti	6
Programación Regular - Tarde	PRTA	100	A24	BS719	12:00:00	17:59:59	1,1,1,1,1,1,1	2013-01-01	0	Televisión	Buenos Aires Cable	DirectvMulti	1
Programación Regular - Noche	PRNO	100	A24	BS719	18:00:00	23:59:59	1,1,1,1,1,1,1	2013-01-01	0	Televisión	Buenos Aires Cable	DirectvMulti	1
Televenta A24	TEVE	0	A24	BS719	01:30:00	05:59:59	1,1,1,1,1,1,1	2013-01-01	0	Televisión	Buenos Aires Cable	DirectvMulti	1
