[{"pk": 3, "model": "app.tipopublicidad", "fields": {"descripcion": "Comercial", "nombre": 1}}, {"pk": 8, "model": "app.tipopublicidad", "fields": {"descripcion": "Infomercial", "nombre": 2}}, {"pk": 1, "model": "app.tipopublicidad", "fields": {"descripcion": "Spot", "nombre": 3}}, {"pk": 6, "model": "app.tipopublicidad", "fields": {"descripcion": "PNT", "nombre": 4}}, {"pk": 7, "model": "app.tipopublicidad", "fields": {"descripcion": "Auspicio", "nombre": 5}}, {"pk": 2, "model": "app.tipopublicidad", "fields": {"descripcion": "Comunicado", "nombre": 6}}, {"pk": 9, "model": "app.tipopublicidad", "fields": {"descripcion": "Lanzamiento", "nombre": 7}}, {"pk": 4, "model": "app.tipopublicidad", "fields": {"descripcion": "Menci\u00f3n", "nombre": 8}}, {"pk": 5, "model": "app.tipopublicidad", "fields": {"descripcion": "Micro", "nombre": 9}}, {"pk": 10, "model": "app.tipopublicidad", "fields": {"descripcion": "Sobreimpreso", "nombre": 10}},
{"pk": 11, "model": "app.tipopublicidad", "fields": {"descripcion": "Aviso Color", "nombre": 11}},
{"pk": 12, "model": "app.tipopublicidad", "fields": {"descripcion": "Aviso ByN", "nombre": 12}}
]