La Voz del Interior	Tapa LVZ	248.00	52.00	4.50	6
La Voz del Interior	Pág. 02 LVZ	92.00	52.00	4.50	6
La Voz del Interior	Pág. 03 LVZ	149.00	52.00	4.50	6
La Voz del Interior	Pág. 04 LVZ	90.00	52.00	4.50	6
La Voz del Interior	Pág. 05 LVZ	143.00	52.00	4.50	6
La Voz del Interior	Pág. 06 LVZ	86.00	52.00	4.50	6
La Voz del Interior	Pág. 07 LVZ	138.00	52.00	4.50	6
La Voz del Interior	Pág. 08 LVZ	85.00	52.00	4.50	6
La Voz del Interior	Pág. 09 LVZ	129.00	52.00	4.50	6
La Voz del Interior	Pág. 10 LVZ	85.00	52.00	4.50	6
La Voz del Interior	Pág. 11 LVZ	127.00	52.00	4.50	6
La Voz del Interior	Pág. 12 LVZ	85.00	52.00	4.50	6
La Voz del Interior	Pág. 13 LVZ	125.00	52.00	4.50	6
La Voz del Interior	Par Post. Op. LVZ	82.00	52.00	4.50	6
La Voz del Interior	Impar Post. Op. LVZ	124.00	52.00	4.50	6
La Voz del Interior	Contratapa - Sucesos LVZ	131.00	52.00	4.50	6
La Voz del Interior	Tapa (D) LVZ	422.00	52.00	4.50	6
La Voz del Interior	Pág. 02 (D) LVZ	189.00	52.00	4.50	6
La Voz del Interior	Pág. 03 (D) LVZ	282.00	52.00	4.50	6
La Voz del Interior	Pág. 04 (D) LVZ	189.00	52.00	4.50	6
La Voz del Interior	Pág. 05 (D) LVZ	267.00	52.00	4.50	6
La Voz del Interior	Pág. 06 (D) LVZ	169.00	52.00	4.50	6
La Voz del Interior	Pág. 07 (D) LVZ	261.00	52.00	4.50	6
La Voz del Interior	Pág. 08 (D) LVZ	145.00	52.00	4.50	6
La Voz del Interior	Pág. 09 (D) LVZ	243.00	52.00	4.50	6
La Voz del Interior	Pág. 10 (D) LVZ	144.00	52.00	4.50	6
La Voz del Interior	Pág. 11 (D) LVZ	225.00	52.00	4.50	6
La Voz del Interior	Pág. 12 (D) LVZ	145.00	133.00	4.50	6
La Voz del Interior	Pág. 13 (D) LVZ	224.00	52.00	4.50	6
La Voz del Interior	Par Post. Op. (D) LVZ	143.00	52.00	4.50	6
La Voz del Interior	Impar Post. Op. (D) LVZ	227.00	52.00	4.50	6
La Voz del Interior	Contratapa (D) LVZ	242.00	52.00	4.50	6
La Voz del Interior	Clasif. Tapa Color LVZ	192.00	52.00	3.37	8
La Voz del Interior	Clasificados Bloque LVZ	93.00	52.00	3.37	8
La Voz del Interior	Clasif. Tiff LVZ	32.00	52.00	3.37	1
La Voz del Interior	Clasif. Contra. LVZ	200.00	52.00	3.70	8
La Voz del Interior	Clasif. Tapa Color (D) LVZ	397.00	52.00	3.70	8
La Voz del Interior	Clasifica Bloque (D) LVZ	141.00	52.00	3.70	8
La Voz del Interior	Clasif. Tiff (D) LVZ	45.00	52.00	3.70	1
La Voz del Interior	Clasif. Contra. (D) LVZ	177.00	52.00	3.70	8
La Voz del Interior	Campo Tapa Color LVZ	178.00	29.00	4.50	5
La Voz del Interior	Campo Bloque LVZ	106.00	29.00	4.50	5
La Voz del Interior	Campo Contra. Color LVZ	161.00	29.00	4.50	5
La Voz del Interior	Mundo D Tapa color LVZ	138.00	29.00	4.50	5
La Voz del Interior	Mundo D Bloque LVZ	68.00	29.00	4.50	5
La Voz del Interior	Pág. Econ. - Agro (D) LVZ	108.00	52.00	4.50	6
La Voz del Interior	Mundo D Contra. LVZ	95.00	29.00	4.50	5
La Voz del Interior	Mundo D bloque (D) LVZ	213.00	29.00	4.50	5
La Voz del Interior	Mundo D Tapa (D)	112.00	29.00	4.50	5
La Voz del Interior	Mundo D Contra. (D) LVZ	150.00	29.00	4.50	5
La Voz del Interior	Sup. Salud Tapa	97.00	29.00	4.50	5
La Voz del Interior	Pág. Econ. - Agro (D) LVZ	162.00	52.00	4.50	6
La Voz del Interior	Sup Arq. e Inm. Tapa Color LVZ	270.00	52.00	4.50	6
La Voz del Interior	Sup Arq. e Inm. Bloque LVZ	159.00	52.00	4.50	6
La Voz del Interior	Sup Arq. e Inm. Contra. LVZ	186.00	52.00	4.50	6
La Voz del Interior	Sup. Tendencia Tapa	86.00	29.00	4.50	5
La Voz del Interior	Sup. Tendencia Bloque	30.00	29.00	4.50	5
La Voz del Interior	Sup. Tendencia Contra	63.00	29.00	4.50	5
La Voz del Interior	Pág. Esp. y Sup. Esp LVZ	102.00	52.00	4.50	6
La Voz del Interior	Pág. Esp. y Sup. Esp (D) LVZ	165.00	52.00	4.50	6
La Voz del Interior	Sup. Negocios Tapa LVZ	270.00	52.00	4.50	6
La Voz del Interior	Sup Negocios Bloque LVZ	159.00	52.00	4.50	6
La Voz del Interior	Sup Negocios Contra. LVZ	186.00	52.00	4.50	6
La Voz del Interior	Sup Temas Tapa color LVZ	93.00	52.00	4.50	6
La Voz del Interior	Sup Temas Bloque LVZ	62.00	52.00	4.50	6
La Voz del Interior	Sup Temas Contratapa LVZ	68.00	52.00	4.50	6
La Voz del Interior	Sup Turismo Tapa color LVZ	215.00	52.00	4.50	6
La Voz del Interior	Sup Turismo Bloque LVZ	120.00	52.00	4.50	6
La Voz del Interior	Sup Turismo Contratapa LVZ	151.00	52.00	4.50	6
La Voz del Interior	Vos Tapa color LVZ	95.00	29.00	4.50	5
La Voz del Interior	Vos Bloque LVZ	64.00	29.00	4.50	5
La Voz del Interior	Vos Contra Color LVZ	86.00	29.00	4.50	5
La Voz del Interior	Vos Tapa Color (D) LVZ	150.00	29.00	4.50	5
La Voz del Interior	Vos Bloque (D) LVZ	101.00	29.00	4.50	5
La Voz del Interior	Vos Contra (D) LVZ	135.00	29.00	4.50	5
Día a Día	Tapa DAD	91.00	28.00	4.70	5
Día a Día	Tapa - dom DAD	117.00	28.00	4.70	5
Día a Día	Pág. 03 DAD	69.00	28.00	4.70	5
Día a Día	Pág. 03 dom DAD	90.00	28.00	4.70	5
Día a Día	Pág. 05 DAD	54.00	28.00	4.70	5
Día a Día	Pág. 05 dom DAD	73.00	28.00	4.70	5
Día a Día	Pág. 07 DAD	51.00	28.00	4.70	5
Día a Día	Pág. 07 dom DAD	66.00	28.00	4.70	5
Día a Día	Par DAD	33.00	28.00	4.70	5
Día a Día	Par dom DAD	50.00	28.00	4.70	5
Día a Día	Impar DAD	40.00	28.00	4.70	5
Día a Día	Impar dom DAD	50.00	28.00	4.70	5
Día a Día	Policiales dom DAD	54.00	28.00	4.70	5
Día a Día	Policiales DAD	43.00	28.00	4.70	5
Día a Día	Contratapa DAD	53.00	28.00	4.70	5
Día a Día	Contrap dom DAD	64.00	28.00	4.70	5
Día a Día	Espectáculos DAD	34.00	28.00	4.70	5
Día a Día	Espectáculos dom DAD	44.00	28.00	4.70	5
Día a Día	Deportes DAD	37.00	28.00	4.70	5
Día a Día	Deportes dom DAD	47.00	28.00	4.70	5
Día a Día	Día Libre Tapa DAD	122.00	28.00	4.70	5
Día a Día	Día Libre Pág. 03 DAD	114.00	28.00	4.70	5
Día a Día	Día Libre Pág. 05 DAD	108.00	28.00	4.70	5
Día a Día	Día Libre Pág. 07 DAD	100.00	28.00	4.70	5
Día a Día	Día Libre Par DAD	58.00	28.00	4.70	5
Día a Día	Día Libre impar DAD	66.00	28.00	4.70	5
Día a Día	Día Libre Contratapa DAD	119.00	28.00	4.70	10
La Mañana de Córdoba	Contratapa LMC	38.00	34.00	4.00	5
La Mañana de Córdoba	Espectáculos LMC 	39.00	34.00	4.00	5
La Mañana de Córdoba	Pág. Impar LMC	58.00	34.00	4.00	5
La Mañana de Córdoba	Pág. 02 LMC 	54.00	34.00	4.00	5
La Mañana de Córdoba	Pág. 03 LMC 	72.00	34.00	4.00	5
La Mañana de Córdoba	Pág. 04 LMC 	47.00	34.00	4.00	5
La Mañana de Córdoba	Pág. 05 LMC 	68.00	34.00	4.00	5
La Mañana de Córdoba	Pág. 06 LMC 	44.00	34.00	4.00	5
La Mañana de Córdoba	Pág. 07 LMC 	63.00	34.00	4.00	5
La Mañana de Córdoba	Pág. 09 LMC	61.00	34.00	4.00	5
La Mañana de Córdoba	Pág. Par LMC	39.00	34.00	4.00	5
La Mañana de Córdoba	Sup. Deportes LMC	40.00	34.00	4.00	5
Diario UNO	Autos (S)	45.00	34.00	4.66	6
Diario UNO	Clasif. (D)	22.00	34.00	4.66	6
Diario UNO	Clasif. (L-S)	18.00	34.00	4.66	6
Diario UNO	Escenario y Tend. (D)	64.00	34.00	4.66	5
Diario UNO	Escenario y Tend. (L-V)	46.00	34.00	4.66	5
Diario UNO	Escenario y Tend. (S)	48.00	34.00	4.66	5
Diario UNO	Estrictamente Social (D)	64.00	34.00	4.66	5
Diario UNO	Mujer (D)	64.00	34.00	4.66	5
Diario UNO	Negocios y Economía (D)	64.00	34.00	4.66	5
Diario UNO	Ovación (D)	98.00	34.00	4.66	5
Diario UNO	Ovación (L-V)	46.00	34.00	4.66	5
Diario UNO	Ovación (S)	48.00	34.00	4.66	5
Diario UNO	Pág. 1 (D)	254.00	34.00	4.66	5
Diario UNO	Pág. 1 (L-V)	186.00	34.00	4.66	5
Diario UNO	Pág. 1 (S)	194.00	34.00	4.66	5
Diario UNO	Pág. 10 (D)	144.00	34.00	4.66	5
Diario UNO	Pág. 10 (L-V)	102.00	34.00	4.66	5
Diario UNO	Pág. 10 (S)	106.00	34.00	4.66	5
Diario UNO	Pág. 11 (D)	176.00	34.00	4.66	5
Diario UNO	Pág. 11 (L-V)	123.00	34.00	4.66	5
Diario UNO	Pág. 11 (S)	129.00	34.00	4.66	5
Diario UNO	Pág. 12 (D)	137.00	34.00	4.66	5
Diario UNO	Pág. 12 (L-V)	97.00	34.00	4.66	5
Diario UNO	Pág. 12 (S)	101.00	34.00	4.66	5
Diario UNO	Pág. 2 (D)	241.00	34.00	4.66	5
Diario UNO	Pág. 2 (L-V)	177.00	34.00	4.66	5
Diario UNO	Pág. 2 (S)	185.00	34.00	4.66	5
Diario UNO	Pág. 3 (D)	222.00	34.00	4.66	5
Diario UNO	Pág. 3 (L-V)	157.00	34.00	4.66	5
Diario UNO	Pág. 3 (S)	169.00	34.00	4.66	5
Diario UNO	Pág. 5 (D)	204.00	34.00	4.66	5
Diario UNO	Pág. 5 (L-V)	143.00	34.00	4.66	5
Diario UNO	Pág. 5 (S)	149.00	34.00	4.66	5
Diario UNO	Pág. 6 (D)	150.00	34.00	4.66	5
Diario UNO	Pág. 6 (L-V)	110.00	34.00	4.66	5
Diario UNO	Pág. 6 (S)	115.00	34.00	4.66	5
Diario UNO	Pág. 7 (D)	195.00	34.00	4.66	5
Diario UNO	Pág. 7 (L-V)	136.00	34.00	4.66	5
Diario UNO	Pág. 7 (S)	142.00	34.00	4.66	5
Diario UNO	Pág. 8 (D)	147.00	34.00	4.66	5
Diario UNO	Pág. 8 (L-V)	103.00	34.00	4.66	5
Diario UNO	Pág. 8 (S)	108.00	34.00	4.66	5
Diario UNO	Pág. 9 (D)	186.00	34.00	4.66	5
Diario UNO	Pág. 9 (L-V)	169.00	34.00	4.66	5
Diario UNO	Pág. 9 (S)	135.00	34.00	4.66	5
Diario UNO	Pág. Imp (D)	167.00	34.00	4.66	5
Diario UNO	Pág. Imp (L-V)	116.00	34.00	4.66	5
Diario UNO	Pág. Imp (S)	121.00	34.00	4.66	5
Diario UNO	Pág. Par (D)	124.00	36.00	4.66	5
Diario UNO	Pág. Par (L-V)	91.00	36.00	4.66	5
Diario UNO	Pág. Par (S)	97.00	36.00	4.66	5
Diario UNO	Turismo (D)	64.00	34.00	4.66	5
Ambito Financiero	ámb. Municipal	137.00	38.00	3.83	6
Ambito Financiero	ámb. Nacional	137.00	38.00	3.83	6
Ambito Financiero	Campo	52.00	38.00	3.83	6
Ambito Financiero	XX Clasificados	90.00	38.00	3.83	6
Ambito Financiero	Deporte	64.00	38.00	3.83	6
Ambito Financiero	Espectáculos	48.00	38.00	3.83	6
Ambito Financiero	Licitaciones	124.00	38.00	3.83	6
Ambito Financiero	Novedades Fiscales	75.00	38.00	3.83	6
Ambito Financiero	Pág. 11 (L)	201.00	38.00	3.83	6
Ambito Financiero	Pág. 11 (M-V)	182.00	38.00	3.83	6
Ambito Financiero	Pág. 13 (L)	188.00	38.00	3.83	6
Ambito Financiero	Pág. 13 (M-V)	171.00	38.00	3.83	6
Ambito Financiero	Pág. 2 (L)	227.00	38.00	3.83	6
Ambito Financiero	Pág. 2 (M-V)	206.00	38.00	3.83	6
Ambito Financiero	Pág. 4 (L)	163.00	38.00	3.83	6
Ambito Financiero	Pág. 4 (M-V)	206.00	38.00	3.83	6
Ambito Financiero	Pág. 5 (L)	227.00	38.00	3.83	6
Ambito Financiero	Pág. 5 (M-V)	206.00	38.00	3.83	6
Ambito Financiero	Pág. 6 (L)	157.00	38.00	3.83	6
Ambito Financiero	Pág. 6 (M-V)	143.00	38.00	3.83	6
Ambito Financiero	Pág. 7 (L)	213.00	38.00	3.83	6
Ambito Financiero	Pág. 7 (M-V)	194.00	38.00	3.83	6
Ambito Financiero	Pág. 9 (L)	203.00	38.00	3.83	6
Ambito Financiero	Pág. 9 (M-V)	184.00	38.00	3.83	6
Ambito Financiero	Pág. Cen. (L)	213.00	38.00	3.83	6
Ambito Financiero	Pág. Cen. (M-V)	194.00	38.00	3.83	6
Ambito Financiero	Pág. Imp. (M-V)	169.00	38.00	3.83	6
Ambito Financiero	Pág. Imp. (L)	186.00	38.00	3.83	6
Ambito Financiero	Pág. Par (L)	156.00	38.00	3.83	6
Ambito Financiero	Pág. Par (M-V)	142.00	38.00	3.83	6
Ambito Financiero	Panorama Bursátil	111.00	38.00	25.00	6
Ambito Financiero	Panorama Financiero	111.00	38.00	25.00	6
Ambito Financiero	Panorama Automotor	60.00	38.00	25.00	6
Ambito Financiero	Panorama Inmobiliario	85.00	38.00	25.00	6
Ambito Financiero	Seguros	97.00	38.00	25.00	6
Ambito Financiero	Turismo	73.00	38.00	25.00	6
Ambito Financiero	Turismo Com. e Inst.	137.00	38.00	25.00	6
Ambito Financiero	alRugby.com Com e Inst.	137.00	38.00	25.00	6
La Nación	Campo Contratapa	3758.00	52.00	4.95	6
La Nación	Campo Impar	3746.00	52.00	4.95	6
La Nación	Campo Interior	3746.00	52.00	4.95	6
La Nación	Campo P3	38.00	52.00	4.95	6
La Nación	Campo P5	3816.00	52.00	4.95	6
La Nación	Campo P7	3851.00	52.00	4.95	6
La Nación	Campo Tapa	4036.00	52.00	4.95	6
La Nación	Contratapa (D)	5094.00	52.00	4.95	6
La Nación	Contratapa (J-V)	4190.00	52.00	4.95	6
La Nación	Contratapa (L-M)	4098.00	52.00	4.95	6
La Nación	Contratapa (S)	4482.00	52.00	4.95	6
La Nación	Deporte Contratapa (D)	2527.00	52.00	2.35	6
La Nación	Deporte Contratapa (J-V)	2038.00	52.00	2.35	6
La Nación	Deporte Contratapa (L-M)	1970.00	52.00	2.35	6
La Nación	Deporte Contratapa (S)	2160.00	52.00	2.35	6
La Nación	Deporte Interior (D)	2340.00	52.00	2.35	6
La Nación	Deporte Interior (J-V)	1918.00	52.00	2.35	6
La Nación	Deporte Interior (L-M)	1860.00	52.00	2.35	6
La Nación	Deporte Interior (S)	2024.00	52.00	2.35	6
La Nación	Deporte Tapa (D)	2597.00	52.00	2.35	6
La Nación	Deporte Tapa (J-S)	22.00	2083.00	2.35	6
La Nación	Deporte Tapa (L-M)	2012.00	52.00	2.35	6
La Nación	Doble Central (D)	7018.00	52.00	4.95	6
La Nación	Doble Central (J-V)	5395.00	52.00	4.95	6
La Nación	Doble Central (L-M)	5175.00	52.00	4.95	6
La Nación	Doble Central (S)	5887.00	52.00	4.95	6
La Nación	Eco Inter (D)	37.00	52.00	4.95	6
La Nación	Eco Inter (J-V)	22.00	52.00	4.95	6
La Nación	Eco Inter (L-M)	19.00	52.00	4.95	6
La Nación	Eco Inter (S)	25.00	52.00	4.95	6
La Nación	Eco Mdo. A (J-V)	23.00	52.00	4.95	6
La Nación	Eco Mdo. A (L-M)	20.00	52.00	4.95	6
La Nación	Eco Mdo. A (S)	25.00	52.00	4.95	6
La Nación	Eco P-2 Columna	172.00	52.00	4.95	6
La Nación	Eco Pág 3 (D)	58.00	52.00	4.95	6
La Nación	Eco Pág 4 (D)	41.00	52.00	4.95	6
La Nación	Eco Pág 5 (D)	56.00	52.00	4.95	6
La Nación	Eco Ta Or FIJO (J-V)	328.00	52.00	4.95	6
La Nación	Eco Ta Or FIJO(L-M)	285.00	52.00	4.95	6
La Nación	Eco Tapa (D)	58.00	52.00	4.95	6
La Nación	Eco Tapa (J-V)	30.00	52.00	4.95	6
La Nación	Eco Tapa (L-M)	26.00	52.00	4.95	6
La Nación	Eco Tapa (S)	33.00	52.00	4.95	6
La Nación	Es Int. (D)	22.00	52.00	4.95	6
La Nación	Es Int. (J-S)	21.00	52.00	4.95	6
La Nación	Es Int. (L-M)	11.00	52.00	4.95	6
La Nación	Es Pág. 3 (D)	655.00	52.00	4.95	6
La Nación	Es Pág. 3 (J-S)	675.00	52.00	4.95	6
La Nación	Es Pág. 3 (L-M)	383.00	52.00	4.95	6
La Nación	Es Pág. 5 (D)	640.00	52.00	4.95	6
La Nación	Es Pág. 5 (J-S)	585.00	52.00	4.95	6
La Nación	Es Tapa (D)	730.00	52.00	4.95	6
La Nación	Es Tapa (J-S)	675.00	52.00	4.95	6
La Nación	Es Tapa (L-M)	395.00	52.00	4.95	6
La Nación	Es Últ P (D)	605.00	52.00	4.95	6
La Nación	Es Últ P (J-S)	565.00	52.00	4.95	6
La Nación	Es Últ P (L-M)	360.00	52.00	4.95	6
La Nación	MyB Contrat	315.00	52.00	4.95	6
La Nación	MyB Doble Cent	375.00	52.00	4.95	6
La Nación	MyB Interior	240.00	52.00	4.95	6
La Nación	MyB P3	290.00	52.00	4.95	6
La Nación	MyB Tapa	340.00	52.00	4.95	6
La Nación	Pág. 11/Soc (D)	1325.00	52.00	4.95	6
La Nación	Pág. 11/Soc (J-V)	900.00	52.00	4.95	6
La Nación	Pág. 11/Soc (L-M)	790.00	52.00	4.95	6
La Nación	Pág. 11/Soc (S)	1030.00	52.00	4.95	6
La Nación	Pág. 2 (D)	1210.00	52.00	4.95	6
La Nación	Pág. 2 (J-V)	820.00	52.00	4.95	6
La Nación	Pág. 2 (L-Mi)	710.00	52.00	4.95	6
La Nación	Pág. 2 (S)	930.00	52.00	4.95	6
La Nación	Pág. 3 (D)	1630.00	52.00	4.95	6
La Nación	Pág. 3 (J-V)	1120.00	52.00	4.95	6
La Nación	Pág. 3 (L-M)	975.00	52.00	4.95	6
La Nación	Pág. 3 (S)	1275.00	52.00	4.95	6
La Nación	Pág. 4 (D)	1130.00	52.00	4.95	6
La Nación	Pág. 4 (J-V)	760.00	52.00	4.95	6
La Nación	Pág. 4 (L-M)	660.00	52.00	4.95	6
La Nación	Pág. 4 (S)	860.00	52.00	4.95	6
La Nación	Pág. 5 (D)	1515.00	52.00	4.95	6
La Nación	Pág. 5 (J-V)	1040.00	52.00	4.95	6
La Nación	Pág. 5 (L-M)	900.00	52.00	4.95	6
La Nación	Pág. 5 (S)	1185.00	52.00	4.95	6
La Nación	Pág. 6 (D)	1040.00	52.00	4.95	6
La Nación	Pág. 6 (J-V)	710.00	52.00	4.95	6
La Nación	Pág. 6 (L-M)	620.00	52.00	4.95	6
La Nación	Pág. 6 (S)	815.00	52.00	4.95	6
La Nación	Pág. 7 (D)	1420.00	52.00	4.95	6
La Nación	Pág. 7 (J-V)	975.00	52.00	4.95	6
La Nación	Pág. 7 (L-M)	845.00	52.00	4.95	6
La Nación	Pág. 7 (S)	1105.00	52.00	4.95	6
La Nación	Pág. 9 (D)	1355.00	52.00	4.95	6
La Nación	Pág. 9 (J-V)	925.00	52.00	4.95	6
La Nación	Pág. 9 (L-M)	800.00	52.00	4.95	6
La Nación	Pág. 9 (S)	1045.00	52.00	4.95	6
La Nación	Pág. Imp (D)	1290.00	52.00	4.95	6
La Nación	Pág. Imp (J-V)	820.00	52.00	4.95	6
La Nación	Pág. Imp (L-M)	715.00	52.00	4.95	6
La Nación	Pág. Imp (S)	940.00	52.00	4.95	6
La Nación	Pág. Par (D)	1010.00	52.00	4.95	6
La Nación	Pág. Par (J-V)	660.00	52.00	4.95	6
La Nación	Pág. Par (L-M)	575.00	52.00	4.95	6
La Nación	Pág. Par (S)	750.00	52.00	4.95	6
La Nación	Salud (D)	1030.00	52.00	4.74	6
La Nación	Salud (J-V)	7010.00	52.00	4.74	6
La Nación	Salud (L-M)	620.00	52.00	4.74	6
La Nación	Salud (S)	800.00	52.00	4.74	6
La Nación	Tec Contratapa	266.00	52.00	4.74	6
La Nación	Tec Inter	173.00	52.00	4.74	6
La Nación	Tec P3	220.00	52.00	4.74	6
La Nación	Tec Tapa	293.00	52.00	4.74	6
La Nación	Turismo Contrat	790.00	52.00	4.95	6
La Nación	Turismo Interior	500.00	52.00	4.95	6
La Nación	Turismo Oreja	1300.00	52.00	4.95	6
La Nación	Turismo Pág 2	750.00	52.00	4.95	6
La Nación	Turismo Pág 3	790.00	52.00	4.95	6
La Nación	Turismo Pág 4	695.00	52.00	4.95	6
La Nación	Turismo Pág 5	725.00	52.00	4.95	6
La Nación	Turismo Tapa	1000.00	52.00	4.95	6
Página 12	Contratapa (D)	200.00	39.00	6.00	5
Página 12	Contratapa (L-V)	156.00	39.00	6.00	5
Página 12	Contratapa (S)	178.00	39.00	6.00	5
Página 12	Cultura (L-V)	55.00	39.00	6.00	5
Página 12	Cultura (S-D)	69.00	39.00	6.00	5
Página 12	Deporte (L-V)	54.00	39.00	6.00	5
Página 12	Deporte (S-D)	59.00	39.00	6.00	5
Página 12	Economía - Impar	150.00	39.00	6.00	5
Página 12	Futuro	253.00	39.00	6.00	5
Página 12	Economía - Par	128.00	39.00	6.00	5
Página 12	Espectáculo (J-D)	48.00	39.00	6.00	5
Página 12	Espectáculo (L-M)	41.00	39.00	6.00	5
Página 12	Líbero	71.00	39.00	6.00	5
Página 12	Licitación (D)	84.00	39.00	6.00	5
Página 12	Licitación (L-V)	78.00	39.00	6.00	5
Página 12	Licitación (S)	81.00	39.00	6.00	5
Página 12	M2 - Arquit. y Vivienda	53.00	39.00	6.00	5
Página 12	Pág 10 (D)	154.00	39.00	6.00	5
Página 12	Pág 10 (L-V)	95.00	39.00	6.00	5
Página 12	Pág 10 (S)	106.00	39.00	6.00	5
Página 12	Pág 11 (D)	209.00	39.00	6.00	5
Página 12	Pág 11 (L-V)	125.00	39.00	6.00	5
Página 12	Pág 11 (S)	142.00	39.00	6.00	5
Página 12	Pág 12 (D)	152.00	39.00	6.00	5
Página 12	Pág 12 (L-V)	94.00	39.00	6.00	5
Página 12	Pág 12 (S)	105.00	39.00	6.00	5
Página 12	Pág 13 (D)	159.00	39.00	6.00	5
Página 12	Pág 13 (L-V)	122.00	39.00	6.00	5
Página 12	Pág 13 (S)	140.00	39.00	6.00	5
Página 12	Pág 14 (D)	115.00	39.00	6.00	5
Página 12	Pág 14 (L-V)	92.00	39.00	6.00	5
Página 12	Pág 14 (S)	103.00	39.00	6.00	5
Página 12	Pág 15 (D)	157.00	39.00	6.00	5
Página 12	Pág 15 (L-V)	121.00	39.00	6.00	5
Página 12	Pág 15 (S)	139.00	39.00	6.00	5
Página 12	Pág 3 (D)	196.00	39.00	6.00	5
Página 12	Pág 3 (L-V)	151.00	39.00	6.00	5
Página 12	Pág 3 (S)	173.00	39.00	6.00	5
Página 12	Pág 4 (D)	139.00	39.00	6.00	5
Página 12	Pág 4 (L-V)	106.00	39.00	6.00	5
Página 12	Pág 4 (S)	122.00	39.00	6.00	5
Página 12	Pág 5 (D)	180.00	39.00	6.00	5
Página 12	Pág 5 (L-V)	144.00	39.00	6.00	5
Página 12	Pág 5 (S)	162.00	39.00	6.00	5
Página 12	Pág 6 (D)	128.00	39.00	6.00	5
Página 12	Pág 6 (L-V)	102.00	39.00	6.00	5
Página 12	Pág 6 (S)	115.00	39.00	6.00	5
Página 12	Pág 7 (D)	219.00	39.00	6.00	5
Página 12	Pág 7 (L-V)	137.00	39.00	6.00	5
Página 12	Pág 7 (S)	153.00	39.00	6.00	5
Página 12	Pág 8 (D)	160.00	39.00	6.00	5
Página 12	Pág 8 (L-V)	97.00	39.00	6.00	5
Página 12	Pág 8 (S)	110.00	39.00	6.00	5
Página 12	Pág 9 (D)	213.00	39.00	6.00	5
Página 12	Pág 9 (L-V)	128.00	39.00	6.00	5
Página 12	Pág 9 (S)	145.00	39.00	6.00	5
Página 12	Pág. Imp (D)	155.00	39.00	6.00	5
Página 12	Pág. Imp (L-V)	117.00	39.00	6.00	5
Página 12	Pág. Imp (S)	136.00	39.00	6.00	5
Página 12	Pág. Par (D)	113.00	39.00	6.00	5
Página 12	Pág. Par (L-V)	89.00	39.00	6.00	5
Página 12	Pág. Par (S)	101.00	39.00	6.00	5
Página 12	Sátira 12	43.00	39.00	6.00	5
Página 12	Suplemento NO	62.00	39.00	6.00	5
Página 12	Turismo 12	82.00	39.00	6.00	5
Ciudadano	Contratapa	114.00	35.00	4.66	5
Ciudadano	Página 11	110.00	35.00	4.66	5
Ciudadano	Página 13	91.00	35.00	4.66	5
Ciudadano	Página 5	136.00	35.00	4.66	5
Ciudadano	Página 7	124.00	35.00	4.66	5
Ciudadano	Página 9	111.00	35.00	4.66	5
Ciudadano	Página Impar	78.00	35.00	4.66	5
Ciudadano	Página Par	68.00	35.00	4.66	5
El Ciudadano	Contratapa	108.00	35.00	3.35	4
El Ciudadano	Pág. 11	65.00	35.00	3.35	4
El Ciudadano	Pág. 13	53.00	35.00	3.35	4
El Ciudadano	Pág. 3	96.00	35.00	3.35	4
El Ciudadano	Pág. 5	88.00	35.00	3.35	4
El Ciudadano	Pág. 7	81.00	35.00	3.35	4
El Ciudadano	Pág. 9	73.00	35.00	3.35	4
El Ciudadano	Página Impar	54.00	35.00	3.35	4
El Ciudadano	Página Par	46.00	35.00	3.35	4
El Ciudadano	Suplemento Deporte	35.00	35.00	3.35	4
El Ciudadano	Suplemento Espectáculo	35.00	35.00	3.35	4
El Ciudadano	Tapa	146.00	35.00	3.35	4
El Sol	Contratapa	21.00	34.00	4.80	5
El Sol	Impar	15.00	34.00	4.80	5
El Sol	Página 11	15.00	34.00	4.80	5
El Sol	Página 3	21.00	34.00	4.80	5
El Sol	Página 5	17.00	34.00	4.80	5
El Sol	Página 7	16.00	34.00	4.80	5
El Sol	Página 9	16.00	34.00	4.80	5
El Sol	Par	13.00	34.00	4.80	5
El Litoral	CL Contratapa 	117.00	34.00	4.65	5
El Litoral	CL Interior 	104.00	34.00	4.65	5
El Litoral	CL Tapa 	129.00	34.00	4.65	5
El Litoral	Clasificados (D)	131.00	34.00	4.65	6
El Litoral	Clasificados (L-S)	100.00	34.00	4.65	6
El Litoral	Contratapa (L-S)	387.00	34.00	4.65	5
El Litoral	Deportes Impar (D)	399.00	34.00	4.65	5
El Litoral	Deportes Impar (L-S)	310.00	34.00	4.65	5
El Litoral	Deportes Par (D)	333.00	34.00	4.65	5
El Litoral	Deportes Par (L-S)	251.00	34.00	4.65	5
El Litoral	Deportes Tapa (D)	497.00	34.00	4.65	5
El Litoral	Deportes Tapa (L-S)	387.00	34.00	4.65	5
El Litoral	Deportes Contratapa (D)	446.00	34.00	4.65	5
El Litoral	Deportes Contratapa (L-S)	344.00	34.00	4.65	5
El Litoral	E&S (D)	353.00	34.00	4.65	5
El Litoral	E&S (L-S)	273.00	34.00	4.65	5
El Litoral	Impar (D)	399.00	34.00	4.65	5
El Litoral	Impar (L-S)	309.00	34.00	4.65	5
El Litoral	M&T Contr (L-S)	154.00	34.00	4.65	5
El Litoral	M&T Inter (L-S)	184.00	34.00	4.65	5
El Litoral	M&T Tapa (L-S)	276.00	34.00	4.65	5
El Litoral	Pág. 11 (D) 	420.00	34.00	4.65	5
El Litoral	Pág. 11 (L-S) 	327.00	34.00	4.65	5
El Litoral	Pág. 13 (D) 	413.00	34.00	4.65	5
El Litoral	Pág. 13 (L-S) 	318.00	34.00	4.65	5
El Litoral	Pág. 3 (D)	546.00	34.00	4.65	5
El Litoral	Pág. 3 (L-S)	425.00	34.00	4.65	5
El Litoral	Pág. 4 (D)	420.00	34.00	4.65	5
El Litoral	Pág. 4 (L-S)	327.00	34.00	4.65	5
El Litoral	Pág. 5 (D) 	498.00	34.00	4.65	5
El Litoral	Pág. 5 (L-S) 	387.00	34.00	26.00	5
El Litoral	Pág. 6 (D) 	413.00	34.00	26.00	5
El Litoral	Pág. 6 (L-S) 	318.00	34.00	26.00	5
El Litoral	Pág. 7 (D) 	448.00	34.00	26.00	5
El Litoral	Pág. 7 (L-S) 	345.00	34.00	26.00	5
El Litoral	Pág. 8 (D) 	399.00	34.00	26.00	5
El Litoral	Pág. 8 (L-S) 	310.00	34.00	26.00	5
El Litoral	Pág. 9 (D) 	427.00	34.00	26.00	5
El Litoral	Pág. 9 (L-S) 	333.00	34.00	26.00	5
El Litoral	Par (D)	333.00	34.00	26.00	5
El Litoral	Par (L-S)	253.00	34.00	26.00	5
El Litoral	Suplemento Especial	154.00	34.00	26.00	5
Los Andes	Clasif. (D)	21.00	52.00	3.20	9
Los Andes	Clasif. (L-S)	10.00	52.00	3.20	9
Los Andes	Impar (D)	104.00	52.00	4.80	6
Los Andes	Impar (L-V)	52.00	52.00	4.80	6
Los Andes	Impar (S)	79.00	52.00	4.80	6
Los Andes	Pág. 10 (D)	92.00	52.00	4.80	6
Los Andes	Pág. 10 (L-V)	46.00	52.00	4.80	6
Los Andes	Pág. 10 (S)	60.00	52.00	4.80	6
Los Andes	Pág. 11 (D)	126.00	52.00	4.80	6
Los Andes	Pág. 11 (L-V)	63.00	52.00	4.80	6
Los Andes	Pág. 11 (S)	82.00	52.00	4.80	6
Los Andes	Pág. 12 (D)	88.00	52.00	4.80	6
Los Andes	Pág. 12 (L-V)	44.00	52.00	4.80	6
Los Andes	Pág. 12 (S)	57.00	52.00	4.80	6
Los Andes	Pág. 13 (D)	122.00	52.00	4.80	6
Los Andes	Pág. 13 (L-V)	61.00	52.00	4.80	6
Los Andes	Pág. 13 (S)	79.00	52.00	4.80	6
Los Andes	Pág. 14 (D)	85.00	77.00	4.80	6
Los Andes	Pág. 14 (L-V)	42.00	52.00	4.80	6
Los Andes	Pág. 14 (S)	55.00	52.00	4.80	6
Los Andes	Pág. 15 (D)	115.00	52.00	4.80	6
Los Andes	Pág. 15 (L-V)	57.00	52.00	4.80	6
Los Andes	Pág. 15 (S)	74.00	52.00	4.80	6
Los Andes	Pág. 2 (D)	130.00	52.00	4.80	6
Los Andes	Pág. 2 (L-V)	65.00	52.00	4.80	6
Los Andes	Pág. 2 (S)	84.00	52.00	4.80	6
Los Andes	Pág. 3 (D)	153.00	52.00	4.80	6
Los Andes	Pág. 3 (L-V)	76.00	52.00	4.80	6
Los Andes	Pág. 3 (S)	99.00	52.00	4.80	6
Los Andes	Pág. 4 (D)	102.00	52.00	32.00	6
Los Andes	Pág. 4 (L-V)	51.00	52.00	32.00	6
Los Andes	Pág. 4 (S)	66.00	52.00	32.00	6
Los Andes	Pág. 5 (D)	145.00	52.00	32.00	6
Los Andes	Pág. 5 (L-V)	73.00	52.00	32.00	6
Los Andes	Pág. 5 (S)	94.00	52.00	32.00	6
Los Andes	Pág. 6 (D)	90.00	52.00	32.00	6
Los Andes	Pág. 6 (L-V)	49.00	52.00	32.00	6
Los Andes	Pág. 6 (S)	64.00	52.00	32.00	6
Los Andes	Pág. 7 (D)	139.00	52.00	32.00	6
Los Andes	Pág. 7 (L-V)	70.00	52.00	32.00	6
Los Andes	Pág. 7 (S)	91.00	52.00	32.00	6
Los Andes	Pág. 8 (D)	95.00	52.00	32.00	6
Los Andes	Pág. 8 (L-V)	47.00	52.00	32.00	6
Los Andes	Pág. 8 (S)	62.00	52.00	32.00	6
Los Andes	Pág. 9 (D)	130.00	52.00	32.00	6
Los Andes	Pág. 9 (L-V)	65.00	52.00	32.00	6
Los Andes	Pág. 9 (S)	84.00	52.00	32.00	6
Los Andes	Pág. Par (D)	86.00	52.00	32.00	6
Los Andes	Pág. Par (L-V)	43.00	52.00	32.00	6
Los Andes	Pág. Par (S)	56.00	52.00	32.00	6
Los Andes	Suplemento (D)	111.00	52.00	32.00	6
Los Andes	Suplemento (L-V)	55.00	52.00	32.00	6
Los Andes	Suplemento (S)	79.00	52.00	32.00	6
Clarín	Pág. 4 (L-V)	693.00	35.00	4.70	5
Clarín	Pág. 4 (S)	870.00	35.00	4.70	5
Clarín	Pág. 4 (D)	1088.00	35.00	4.70	5
Clarín	Pág. 5 (L-V)	879.00	35.00	4.70	5
Clarín	Pág. 5 (S)	1104.00	35.00	4.70	5
Clarín	Pág. 5 (D)	1492.00	35.00	4.70	5
Clarín	Pág. 6 (L-V)	688.00	35.00	4.70	5
Clarín	Pág. 6 (S)	863.00	35.00	4.70	5
Clarín	Pág. 6 (D)	1081.00	35.00	4.70	5
Clarín	Pág. 7 (L-V)	858.00	35.00	4.70	5
Clarín	Pág. 7 (S)	1076.00	35.00	4.70	5
Clarín	Pág. 7 (D)	1480.00	35.00	4.70	5
Clarín	Pág. 8 (J-V)	682.00	35.00	4.70	5
Clarín	Pág. 8 (S)	853.00	35.00	4.70	5
Clarín	Pág. 8 (D)	1078.00	35.00	4.70	5
Clarín	Pág. 9 (L-V)	837.00	35.00	4.70	5
Clarín	Pág. 9 (S)	1050.00	35.00	4.70	5
Clarín	Pág. 9 (D)	1461.00	35.00	4.70	5
Clarín	Pág. 10 (L-V)	674.00	35.00	4.70	5
Clarín	Pág. 10 (S)	848.00	35.00	4.70	5
Clarín	Pág. 10 (D)	1047.00	35.00	4.70	5
Clarín	Pág. 11 (L-V)	814.00	35.00	4.70	5
Clarín	Pág. 11 (S)	1023.00	35.00	4.70	5
Clarín	Pág. 11 (D)	1441.00	35.00	4.70	5
Olé	Pág. 11 (S-D-L)	339.00	35.00	2.70	6
Clarín	Pág. 12 (S)	831.00	35.00	4.70	5
Clarín	Pág. 12 (D)	1040.00	35.00	4.70	5
Olé	Pág. 7 (S-D-L)	383.00	35.00	2.70	6
Clarín	Pág. 13 (S)	995.00	35.00	4.70	5
Clarín	Pág. 13 (D)	1424.00	35.00	4.70	5
Clarín	Pág. 14 (S)	819.00	35.00	4.70	5
Clarín	Pág. 14 (D)	1022.00	35.00	4.70	5
Clarín	Pág. 15 (S)	968.00	35.00	4.70	5
Clarín	Pág. 15 (D)	1386.00	35.00	4.70	5
Clarín	Pág. 16 (S)	796.00	35.00	4.70	5
Clarín	Pág. 16 (D)	1019.00	35.00	4.70	5
Clarín	Pág. 17 (S)	933.00	35.00	4.70	5
Clarín	Pág. 17 (D)	1347.00	35.00	4.70	5
Clarín	Pág. 18 (S)	795.00	35.00	4.70	5
Clarín	Pág. 18 (D)	1014.00	35.00	4.70	5
Clarín	Pág. 19 (S)	931.00	35.00	4.70	5
Clarín	Pág. 19 (D)	1312.00	35.00	4.70	5
Clarín	Pág. 21 (S)	928.00	35.00	4.70	5
Clarín	Pág. 21 (D)	1273.00	35.00	4.70	5
Clarín	Pág. 23 (S)	925.00	35.00	4.70	5
Clarín	Pág. 23 (D)	1235.00	35.00	4.70	5
Clarín	Pág. 25 (S)	921.00	35.00	4.70	5
Clarín	Pág. 25 (D)	1215.00	35.00	4.70	5
Clarín	Pág. Par (L-V)	665.00	35.00	4.70	5
Clarín	Pág. Par (S)	793.00	35.00	4.70	5
Clarín	Pág. Par (D)	1009.00	35.00	4.70	5
Clarín	Pág. Impar (L-V)	795.00	35.00	4.70	5
Clarín	Pág. Impar (S)	916.00	35.00	4.70	5
Clarín	Pág. Impar (D)	1196.00	35.00	4.70	5
Clarín	Pág. Central (L-V)	536.00	35.00	24.00	5
Clarín	Pág. Central (S)	679.00	35.00	4.70	5
Clarín	Pág. Central (D)	778.00	35.00	4.70	5
Clarín	Deportes (L-V)	463.00	35.00	4.70	5
Clarín	Deportes (S)	484.00	35.00	4.70	5
Clarín	Deportes (D)	645.00	35.00	4.70	5
Clarín	Policía (L-V)	485.00	35.00	4.70	5
Clarín	Policía (S)	507.00	35.00	4.70	5
Clarín	Policía (D)	707.00	35.00	4.70	5
Clarín	Licitación (L-S)	67.00	35.00	4.70	5
Clarín	Licitación (D)	74.00	35.00	4.70	5
Clarín	I-Eco - Tapa	1000.00	35.00	4.70	5
Clarín	I-Eco - Pág. 2	551.00	35.00	4.70	5
Clarín	I-Eco - Pág. 3	5310.00	35.00	4.70	5
Clarín	I-Eco - Pág. 4	542.00	35.00	4.70	5
Clarín	I-Eco - Pág. 5	611.00	35.00	4.70	5
Clarín	I-Eco - Pág. 6	526.00	35.00	4.70	5
Clarín	I-Eco - Pág. 7	578.00	35.00	4.70	5
Clarín	I-Eco - Pág. 8	526.00	35.00	4.70	5
Clarín	I-Eco - Pág. 9	553.00	35.00	4.70	5
Clarín	I-Eco - Pág. Central	553.00	35.00	4.70	5
Clarín	I-Eco - Eco Mundial	526.00	35.00	4.70	5
Clarín	Espect - Com (L-S)	357.00	35.00	4.70	5
Clarín	Espect - Com (D)	483.00	35.00	4.70	5
Clarín	Espect - Esp (L-S)	198.00	35.00	4.70	5
Clarín	Espect - Esp (D)	266.00	35.00	4.70	5
Clarín	Deportivo (L)	219.00	35.00	4.70	5
Clarín	Mujer (S) Tapa	222.00	35.00	4.70	5
Clarín	Mujer (S)	186.00	35.00	4.70	5
Clarín	Mujer (S) Contra	222.00	35.00	4.70	5
Clarín	Ñ (S) Tapa	257.00	35.00	4.70	5
Clarín	Ñ (S)	216.00	35.00	4.70	5
Clarín	Turismo (D) Tapa	408.00	35.00	4.70	5
Clarín	Turismo (D) Pág. 3	390.00	35.00	4.70	5
Clarín	Turismo (D) Pág. 5	374.00	35.00	4.70	5
Clarín	Turismo (D)	309.00	35.00	4.70	5
Clarín	Si (V) Tapa	346.00	35.00	4.70	5
Clarín	Si (V)	243.00	35.00	4.70	5
Clarín	Rural (S) Tapa	339.00	35.00	4.70	5
Clarín	Rural (S) Pág. 3	328.00	35.00	4.70	5
Clarín	Rural (S) Com e Instit	228.00	35.00	4.70	5
Clarín	Rural (S) Remates	84.00	35.00	4.70	5
Clarín	Countries (S) Tapa	319.00	35.00	4.70	5
Clarín	Countries (S) Pág. 2	232.00	35.00	4.70	5
Clarín	Countries (S) Pág. 3	246.00	35.00	4.70	5
Clarín	Countries (S) Pág. 4	214.00	35.00	4.70	5
Clarín	Countries (S) Pág. 5	228.00	35.00	4.70	5
Clarín	Countries (S) Pág. 7	216.00	35.00	4.70	5
Clarín	Countries (S) Contra	216.00	35.00	4.70	5
Clarín	Autos (J) Tapa	212.00	35.00	4.70	5
Clarín	Autos (J) Pág. 3	197.00	35.00	4.70	5
Clarín	Autos (J) Pág. 5	190.00	35.00	4.70	5
Clarín	Autos (J) S/Ubic	153.00	35.00	4.70	5
Clarín	Autos (J) C/Ubic	176.00	35.00	4.70	5
Clarín	Autos (J) Contra	205.00	35.00	4.70	5
Clarín	Arq (Ma) Pág. 5	121.00	35.00	4.70	5
Clarín	Arq (Ma) Pág. 7	119.00	35.00	4.70	5
Clarín	Arq (Ma) Pág. 9	114.00	35.00	4.70	5
Clarín	Arq (Ma) Pág. 11	113.00	35.00	4.70	5
Clarín	Arq (Ma) Color	108.00	35.00	24.00	5
Clarín	Arq (Ma) Contra	130.00	35.00	4.70	5
Tiempo Argentino	Página 3 (L-S)	260.00	36.00	5.00	5
Tiempo Argentino	Página 5 (L-S)	260.00	36.00	5.00	5
Tiempo Argentino	Página 7 (L-S)	260.00	36.00	5.00	5
Tiempo Argentino	Página 9 (L-S)	252.00	36.00	5.00	5
Tiempo Argentino	Página 11 (L-S)	252.00	36.00	5.00	5
Tiempo Argentino	Página 13 (L-S)	252.00	36.00	5.00	5
Tiempo Argentino	Página 15 (L-S)	226.00	36.00	5.00	5
Tiempo Argentino	Página 17 (L-S)	226.00	36.00	5.00	5
Tiempo Argentino	Página 21 (L-S)	1132.00	36.00	5.00	5
Tiempo Argentino	Página 19 (L-S)	226.00	36.00	5.00	5
Tiempo Argentino	Página 23 (L-S)	185.00	36.00	5.00	5
Tiempo Argentino	Página 25 (L-S)	185.00	36.00	5.00	5
Tiempo Argentino	Página 27 (L-S)	185.00	36.00	5.00	5
Tiempo Argentino	Página 29 (L-S)	185.00	36.00	5.00	5
Tiempo Argentino	Página 31 (L-S)	185.00	36.00	5.00	5
Tiempo Argentino	Página 33 (L-S)	185.00	36.00	5.00	5
Tiempo Argentino	Página 35 (L-S)	185.00	36.00	5.00	5
Tiempo Argentino	Página 37 (L-S)	185.00	36.00	5.00	5
Tiempo Argentino	Página 39 (L-S)	150.00	36.00	5.00	5
Tiempo Argentino	Página 41 (L-S)	150.00	36.00	5.00	5
Tiempo Argentino	Página 43 (L-S)	150.00	36.00	5.00	5
Tiempo Argentino	Página 45 (L-S)	150.00	36.00	5.00	5
Tiempo Argentino	Página 47 (L-S)	150.00	36.00	5.00	5
Tiempo Argentino	Página 49 (L-S)	150.00	36.00	5.00	5
Tiempo Argentino	Página 51 (L-S)	150.00	36.00	5.00	5
Tiempo Argentino	Página 53 (L-S)	150.00	36.00	5.00	5
Tiempo Argentino	Página 55 (L-S)	150.00	36.00	5.00	5
Tiempo Argentino	Página 2 (L-S)	208.00	36.00	5.00	5
Tiempo Argentino	Página 6 (L-S)	208.00	36.00	5.00	5
Tiempo Argentino	Página 8 (L-S)	208.00	36.00	5.00	5
Tiempo Argentino	Página 10 (L-S)	191.00	36.00	5.00	5
Tiempo Argentino	Página 12 (L-S)	191.00	36.00	5.00	5
Tiempo Argentino	Página 14 (L-S)	191.00	36.00	5.00	5
Tiempo Argentino	Página 16 (L-S)	191.00	36.00	5.00	5
Tiempo Argentino	Página 18 (L-S)	191.00	36.00	5.00	5
Tiempo Argentino	Página 20 (L-S)	191.00	36.00	5.00	5
Tiempo Argentino	Página 22 (L-S)	162.00	36.00	5.00	5
Tiempo Argentino	Página 24 (L-S)	162.00	36.00	5.00	5
Tiempo Argentino	Página 26 (L-S)	162.00	36.00	5.00	5
Tiempo Argentino	Página 28 (L-S)	162.00	36.00	5.00	5
Tiempo Argentino	Página 30 (L-S)	162.00	36.00	5.00	5
Tiempo Argentino	Página 32 (L-S)	162.00	36.00	5.00	5
Tiempo Argentino	Página 34 (L-S)	162.00	36.00	5.00	5
Tiempo Argentino	Página 36 (L-S)	162.00	36.00	5.00	5
Tiempo Argentino	Página 38 (L-S)	133.00	36.00	5.00	5
Tiempo Argentino	Página 40 (L-S)	133.00	36.00	5.00	5
Tiempo Argentino	Página 42 (L-S)	133.00	36.00	5.00	5
Tiempo Argentino	Página 44 (L-S)	133.00	36.00	5.00	5
Tiempo Argentino	Página 46 (L-S)	133.00	36.00	5.00	5
Tiempo Argentino	Página 48 (L-S)	133.00	36.00	5.00	5
Tiempo Argentino	Página 50 (L-S)	133.00	36.00	5.00	5
Tiempo Argentino	Página 52 (L-S)	133.00	36.00	5.00	5
Tiempo Argentino	Página 54 (L-S)	133.00	36.00	5.00	5
Tiempo Argentino	Pág. Imp S/U (L-S)	226.00	36.00	5.00	5
Tiempo Argentino	Pág. Par S/U (L-S)	200.00	36.00	5.00	5
Tiempo Argentino	Licitación (L-S)	49.00	36.00	5.00	5
Tiempo Argentino	Remate (L-S)	124.00	36.00	5.00	5
Tiempo Argentino	D - Página 3 	519.00	36.00	5.00	5
Tiempo Argentino	D - Página 5 	519.00	36.00	5.00	5
Tiempo Argentino	D - Página 7 	519.00	36.00	5.00	5
Tiempo Argentino	D - Página 9 	491.00	36.00	5.00	5
Tiempo Argentino	D - Página 11 	491.00	36.00	5.00	5
Tiempo Argentino	D - Página 13 	491.00	36.00	5.00	5
Tiempo Argentino	D - Página 15 	448.00	36.00	5.00	5
Tiempo Argentino	D - Página 17 	448.00	36.00	5.00	5
Tiempo Argentino	D - Página 21 	448.00	36.00	5.00	5
Tiempo Argentino	D - Página 19 	448.00	36.00	5.00	5
Tiempo Argentino	D - Página 23 	307.00	36.00	5.00	5
Tiempo Argentino	D - Página 25 	307.00	36.00	5.00	5
Tiempo Argentino	D - Página 27 	307.00	36.00	5.00	5
Tiempo Argentino	D - Página 29 	307.00	36.00	5.00	5
Tiempo Argentino	D - Página 31 	307.00	36.00	5.00	5
Tiempo Argentino	D - Página 33	307.00	36.00	5.00	5
Tiempo Argentino	D - Página 35 	307.00	36.00	5.00	5
Tiempo Argentino	D - Página 37 	307.00	36.00	5.00	5
Tiempo Argentino	D - Página 39 	248.00	36.00	5.00	5
Tiempo Argentino	D - Página 41 	248.00	36.00	5.00	5
Tiempo Argentino	D - Página 43 	248.00	36.00	5.00	5
Tiempo Argentino	D - Página 45 	248.00	36.00	5.00	5
Tiempo Argentino	D - Página 47 	248.00	36.00	5.00	5
Tiempo Argentino	D - Página 49 	248.00	36.00	5.00	5
Tiempo Argentino	D - Página 51 	248.00	36.00	5.00	5
Tiempo Argentino	D - Página 53 	248.00	36.00	5.00	5
Tiempo Argentino	D - Página 55	248.00	36.00	5.00	5
Tiempo Argentino	D - Página 2 	352.00	36.00	5.00	5
Tiempo Argentino	D - Página 6	352.00	36.00	5.00	5
Tiempo Argentino	D - Página 8 	352.00	36.00	5.00	5
Tiempo Argentino	D - Página 10 	335.00	36.00	5.00	5
Tiempo Argentino	D - Página 12 	335.00	36.00	5.00	5
Tiempo Argentino	D - Página 14 	335.00	36.00	5.00	5
Tiempo Argentino	D - Página 16 	335.00	36.00	5.00	5
Tiempo Argentino	D - Página 18 	335.00	36.00	5.00	5
Tiempo Argentino	D - Página 20 	335.00	36.00	5.00	5
Tiempo Argentino	D - Página 22 	253.00	36.00	5.00	5
Tiempo Argentino	D - Página 24 	253.00	36.00	5.00	5
Tiempo Argentino	D - Página 26 	253.00	36.00	5.00	5
Tiempo Argentino	D - Página 28 	253.00	36.00	5.00	5
Tiempo Argentino	D - Página 30 	253.00	36.00	5.00	5
Tiempo Argentino	D - Página 32	253.00	36.00	5.00	5
Tiempo Argentino	D - Página 34 	253.00	36.00	5.00	5
Tiempo Argentino	D - Página 36 	253.00	36.00	5.00	5
Tiempo Argentino	D - Página 38 	225.00	36.00	5.00	5
Tiempo Argentino	D - Página 40 	225.00	36.00	5.00	5
Tiempo Argentino	D - Página 42 	225.00	36.00	5.00	5
Tiempo Argentino	D - Página 44 	225.00	36.00	5.00	5
Tiempo Argentino	D - Página 46 	225.00	36.00	5.00	5
Tiempo Argentino	D - Página 48	225.00	36.00	5.00	5
Tiempo Argentino	D - Página 50 	225.00	36.00	5.00	5
Tiempo Argentino	D - Página 52 	225.00	36.00	5.00	5
Tiempo Argentino	D - Página 54 	225.00	36.00	5.00	5
Tiempo Argentino	D - Pág. Imp S/U	309.00	36.00	5.00	5
Tiempo Argentino	D - Pág. Par S/U	287.00	36.00	5.00	5
Tiempo Argentino	D - Licitación 	55.00	36.00	5.00	5
El Cronista Comercial	Pagina 2	213.00	34.00	4.60	5
El Cronista Comercial	Pagina 3	239.00	34.00	4.60	5
El Cronista Comercial	Pagina 4	163.00	34.00	4.60	5
El Cronista Comercial	Pagina 5	207.00	34.00	4.60	5
El Cronista Comercial	Pagina 6	152.00	34.00	4.60	5
El Cronista Comercial	Pagina 7	207.00	34.00	4.60	5
El Cronista Comercial	Pagina 9	191.00	34.00	4.60	5
El Cronista Comercial	Pág. Imp A/C	183.00	34.00	4.60	5
El Cronista Comercial	Pág. Par A/C	157.00	34.00	4.60	5
El Cronista Comercial	Pág. Par D/C	149.00	34.00	4.60	5
El Cronista Comercial	Pág. Imp D/C	163.00	34.00	4.60	5
El Cronista Comercial	Pág. Imp Central	170.00	34.00	4.60	5
El Cronista Comercial	Contratapa	173.00	34.00	4.60	5
El Cronista Comercial	Pág. Doble Central	157.00	34.00	4.60	5
El Cronista Comercial	Licitaciones	43.00	34.00	4.60	5
El Cronista Comercial	Sup. It Business (Ma)	88.00	34.00	4.60	5
El Cronista Comercial	Sup. PyMe (J)	97.00	34.00	4.60	5
El Cronista Comercial	Sup. Financial Times (L)	92.00	34.00	4.60	5
El Cronista Comercial	Sup. Transport & Cargo (Mi)	54.00	34.00	4.60	5
El Cronista Comercial	Sup. Weekend (V)	88.00	34.00	4.60	5
El Cronista Comercial	Sup. Fiscal y Previsional	60.00	34.00	4.60	5
El Cronista Comercial	Resp. Soc	75.00	34.00	4.60	5
El Cronista Comercial	Real State	68.00	34.00	4.60	5
El Cronista Comercial	Sup. Seguros	77.00	34.00	4.60	5
El Cronista Comercial	Sup. RPM	48.00	34.00	4.60	5
El Cronista Comercial	Sup. Management	85.00	34.00	24.00	5
La Prensa	Pág. Impar s/u	75.00	35.00	5.00	5
La Prensa	Pág. Par s/u	64.00	35.00	5.00	5
La Prensa	Pág. Par c/u	86.00	35.00	5.00	5
La Prensa	Página 3	112.00	35.00	5.00	5
La Prensa	Página 5	104.00	35.00	5.00	5
La Prensa	Página 7	99.00	35.00	5.00	5
La Prensa	Página 9	90.00	35.00	5.00	5
La Prensa	Página 11	87.00	35.00	5.00	5
La Prensa	Frente a Editorial	112.00	35.00	5.00	5
La Prensa	Pág. Doble/Central Color	192.00	35.00	5.00	5
La Prensa	Sec. Economía	53.00	35.00	5.00	5
La Prensa	Sec. Espectáculos	28.00	35.00	5.00	5
La Prensa	Sec. Deportes	28.00	35.00	5.00	5
La Prensa	Sup. Campo (S)	28.00	35.00	5.00	5
La Prensa	Sup. Deporte (L)	28.00	35.00	5.00	5
La Prensa	Sup. Sobre Ruedas (S)	28.00	35.00	5.00	5
La Prensa	D - Pág. Impar s/u	101.00	35.00	5.00	5
La Prensa	D - Pág. Par s/u	78.00	35.00	5.00	5
La Prensa	D - Pág. Par c/u	137.00	35.00	5.00	5
La Prensa	D - Página 3	131.00	35.00	5.00	5
La Prensa	D - Página 5	119.00	35.00	5.00	5
La Prensa	D - Página 7	126.00	35.00	5.00	5
La Prensa	D - Página 9	105.00	35.00	5.00	5
La Prensa	D - Página 11	104.00	35.00	5.00	5
La Prensa	D - Frente a Editorial	131.00	35.00	5.00	5
La Prensa	D - Doble Central Color	245.00	35.00	5.00	5
La Prensa	D - Sec. Espectáculos	34.00	35.00	5.00	5
La Prensa	D - Sec. Deportes	34.00	35.00	5.00	5
La Prensa	D - Sup. Cultura	28.00	35.00	5.00	5
La Prensa	D - Sup. Economía	53.00	35.00	25.00	5
La Prensa	D - Sup. Ciencia y Salud	28.00	35.00	25.00	5
La Prensa	D - Sup. Turismo	28.00	35.00	25.00	5
Diario Popular	Pág. 2	226.00	30.00	4.87	5
Diario Popular	Pág. 3	304.00	30.00	4.87	5
Diario Popular	Pág. 4	212.00	30.00	4.87	5
Diario Popular	Pág. 5	270.00	30.00	4.87	5
Diario Popular	Pág. 7	252.00	30.00	4.87	5
Diario Popular	Pág. Imp S/U	188.00	30.00	4.87	5
Diario Popular	Sin Ubic.	149.00	30.00	4.87	5
Diario Popular	Doble Central	303.00	30.00	4.87	5
Diario Popular	Policiales	188.00	30.00	4.87	5
Diario Popular	Sup. Espectáculos	188.00	30.00	4.87	5
Diario Popular	Sup. Turf	188.00	30.00	4.87	5
Diario Popular	Contratapa	331.00	30.00	4.87	5
Diario Popular	Suple. Súper Deportivo	208.00	30.00	4.87	5
Diario Popular	D - Pág. 2	339.00	30.00	4.87	5
Diario Popular	D - Pág. 3	455.00	30.00	4.87	5
Diario Popular	D - Pág. 4	318.00	30.00	4.87	5
Diario Popular	D - Pág. 5	407.00	30.00	4.87	5
Diario Popular	D - Pág. 7	377.00	30.00	4.87	5
Diario Popular	D - Pág. Imp S/U	282.00	30.00	4.87	5
Diario Popular	D - Sin Ubic.	225.00	30.00	4.87	5
Diario Popular	D - Doble Central	455.00	30.00	4.87	5
Diario Popular	D - Policiales	282.00	30.00	4.87	5
Diario Popular	D - Sup. Espectáculos	282.00	30.00	4.87	5
Diario Popular	D - Sup. Turf	282.00	30.00	4.87	5
Diario Popular	D - Contratapa	497.00	30.00	25.00	5
Diario Popular	D - Suple. Súper Deportivo	312.00	30.00	25.00	5
Perfil	Pág. 2	273.00	34.00	4.50	5
Perfil	Pág. 3	363.00	34.00	4.50	5
Perfil	Pág. 4	194.00	34.00	4.50	5
Perfil	Pág. 5	259.00	34.00	4.50	5
Perfil	Pág. 6	189.00	34.00	4.50	5
Perfil	Pág. 7	252.00	34.00	4.50	5
Perfil	Pág. 8	183.00	34.00	4.50	5
Perfil	Pág. 9	244.00	34.00	4.50	5
Perfil	Pág. 10	178.00	34.00	4.50	5
Perfil	Pág. 11	237.00	34.00	4.50	5
Perfil	Pág. 12	172.00	34.00	4.50	5
Perfil	Pág. 13	230.00	34.00	4.50	5
Perfil	Pág. 14	167.00	34.00	4.50	5
Perfil	Pág. 15	223.00	34.00	4.50	5
Perfil	Pág. 16	162.00	34.00	4.50	5
Perfil	Pág. 17	216.00	34.00	4.50	5
Perfil	Pág. 18	157.00	34.00	4.50	5
Perfil	Pág. 19	210.00	34.00	4.50	5
Perfil	Pág. 21	204.00	34.00	4.50	5
Perfil	Pág. 23	197.00	34.00	4.50	5
Perfil	Pág. 25	191.00	34.00	4.50	5
Perfil	Pág. Par A.C.	152.00	34.00	4.50	5
Perfil	Pág. Impar A.C.	186.00	34.00	4.50	5
Perfil	Pág. Central	145.00	34.00	4.50	5
Perfil	Págs. Desp. de Central	138.00	34.00	4.50	5
Perfil	Licitaciones	77.00	34.00	4.50	5
Perfil	S. Espect. Pág 5	136.00	34.00	4.50	5
Perfil	S. Espect. Pág 7	128.00	34.00	4.50	5
Perfil	S. Espect. Pág 9	120.00	34.00	4.50	5
Perfil	S. Espect. Com S/U	104.00	34.00	4.50	5
Perfil	S. Deportes Pág 5	144.00	34.00	4.50	5
Perfil	S. Deportes Pág 7	137.00	34.00	4.50	5
Perfil	S. Deportes Pág 9	128.00	34.00	4.50	5
Perfil	S. Deportes S/U	120.00	34.00	23.00	5
Perfil	S. Home Pág. 5	78.00	34.00	4.50	5
Perfil	S. Home Pág. 7	72.00	34.00	4.50	5
Perfil	S. Home Pág. 9	66.00	34.00	4.50	5
Perfil	S. Home S/U	60.00	34.00	4.50	5
Perfil	S. Turismo Pág 5	78.00	34.00	4.50	5
Perfil	S. Turismo Pág 7	72.00	34.00	4.50	5
Perfil	S. Turismo Pág 9	66.00	34.00	4.50	5
Perfil	S. Turismo S/U	60.00	34.00	4.50	5
Perfil	S. Neo-Autos-Mujer	60.00	34.00	4.50	5
Perfil	S. Vip S/U	100.00	34.00	4.50	5
Perfil	S. Vip Contra.	120.00	34.00	4.50	5
Perfil	D - Pág. 2	327.00	34.00	4.50	5
Perfil	D - Pág. 3	436.00	34.00	4.50	5
Perfil	D - Pág. 4	233.00	34.00	4.50	5
Perfil	D - Pág. 5	311.00	34.00	23.00	5
Perfil	D - Pág. 6	226.00	34.00	4.50	5
Perfil	D - Pág. 7	302.00	34.00	4.50	5
Perfil	D - Pág. 8	220.00	34.00	23.00	5
Perfil	D - Pág. 9	293.00	34.00	4.50	5
Perfil	D - Pág. 10	213.00	34.00	4.50	5
Perfil	D - Pág. 11	284.00	34.00	4.50	5
Perfil	D - Pág. 12	207.00	34.00	4.50	5
Perfil	D - Pág. 13	275.00	34.00	4.50	5
Perfil	D - Pág. 14	200.00	34.00	4.50	5
Perfil	D - Pág. 15	267.00	34.00	4.50	5
Perfil	D - Pág. 16	194.00	34.00	4.50	5
Perfil	D - Pág. 17	259.00	34.00	4.50	5
Perfil	D - Pág. 18	188.00	34.00	4.50	5
Perfil	D - Pág. 19	252.00	34.00	4.50	5
Perfil	D - Pág. 21	244.00	34.00	4.50	5
Perfil	D - Pág. 23	236.00	34.00	4.50	5
Perfil	D - Pág. 25	229.00	34.00	4.50	5
Perfil	D - Pág. Par A.C.	183.00	34.00	4.50	5
Perfil	D - Pág. Impar A.C.	223.00	34.00	4.50	5
Perfil	D - Pág. Central	174.00	34.00	4.50	5
Perfil	D - Págs. Desp. de Central	165.00	34.00	4.50	5
Perfil	D - Licitaciones	92.00	34.00	4.50	5
Perfil	D - S. Espect. Pág 5	163.00	34.00	4.50	5
Perfil	D - S. Espect. Pág 7	154.00	34.00	4.50	5
Perfil	D - S. Espect. Pág 9	144.00	34.00	4.50	5
Perfil	D - S. Espect. Com S/U	124.00	34.00	4.50	5
Perfil	D - S. Deportes Pág 5	151.00	34.00	4.50	5
Perfil	D - S. Deportes Pág 7	142.00	34.00	4.50	5
Perfil	D - S. Deportes Pág 9	134.00	34.00	4.50	5
Perfil	D - S. Deportes S/U	126.00	34.00	4.50	5
Perfil	D - S. Vip S/U	120.00	34.00	4.50	5
Perfil	D - S. Vip Contra	144.00	34.00	4.50	5
Olé	Pág. 2 (M-V)	270.00	35.00	2.70	6
Olé	Pág. 3 (M-V)	770.00	35.00	2.70	6
Olé	Pág. 5 (M-V)	324.00	35.00	2.70	6
Olé	Pág. 7 (M-V)	306.00	35.00	2.70	6
Olé	Pág. 9 (M-V)	287.00	35.00	2.70	6
Olé	Pág. 11 (M-V)	269.00	35.00	2.70	6
Olé	Imp A.C. (M-V)	280.00	35.00	2.70	6
Olé	Pág. Par A/C (M-V)	270.00	35.00	2.70	6
Olé	Pág. Central (M-V)	232.00	35.00	2.70	6
Olé	Pág. Imp. D/C (M-V)	210.00	35.00	2.70	6
Olé	Pág. Par D/C (M-V)	199.00	35.00	2.70	6
Olé	Contratapa (M-V)	398.00	35.00	2.70	6
Olé	Pág. Especiales (M-V)	199.00	35.00	2.70	6
Olé	Licitaciones (M-V)	218.00	35.00	2.70	6
Nueva	Contratapa	5947.60	1.00	1.00	21
La Nación	Comunidad Tapa	275.00	33.00	4.74	4
La Nación	Comunidad	250.00	33.00	4.74	4
La Nación	Al Volante	363.00	33.00	4.74	5
La Nación	Al Volante - Contrat	432.00	33.00	4.74	5
La Nación	Al Volante - Tapa Motos	363.00	33.00	4.74	5
Página 12	Cash - Par	128.00	39.00	6.00	5
Página 12	Cash - Impar	150.00	39.00	6.00	5
La Nación	Enfoques - Tapa	770.00	20.00	4.95	6
La Nación	Enfoques - Oreja Tapa	8500.00	1.00	4.95	1
La Nación	Enfoques - Interior	460.00	52.00	4.95	6
La Nación	Enfoques - Contratapa	570.00	52.00	4.95	6
Clarín	Ollas - Tapa (4x5)	253.00	35.00	4.70	5
Clarín	Ollas	201.00	35.00	4.70	5
Tiempo Argentino	Página 4 (L-S)	208.00	36.00	5.00	5
Tiempo Argentino	D - Página 4	352.00	36.00	26.00	5
Infocampo Semanal	Tapa	1490.00	36.00	4.80	5
Infocampo Semanal	Tapa Oreja FIJO 4x4	4900.00	36.00	4.80	5
Infocampo Semanal	Contratapa	1176.00	36.00	4.80	5
Infocampo Semanal	Pág. Bloque	588.00	36.00	4.80	5
Infocampo Semanal	Agrupados	353.00	36.00	4.80	5
Nueva	Retiraciones	5319.00	1.00	1.00	21
Nueva	Pág. 5	5047.60	1.00	1.00	21
Nueva	Pág. 7	4880.90	1.00	1.00	21
Nueva	Pág. Interior	4642.80	1.00	1.00	21
Nueva	Media Pág. Horizontal	2478.00	1.00	1.00	21
Nueva	Media Pag. Vertical	3110.00	1.00	1.00	10
Nueva	Columna	3887.50	1.00	1.00	8
Nueva	Pié de Página	2528.50	1.00	1.00	8
Rumbos	Contratapa	4585.30	1.00	1.00	21
Rumbos	Retiraciones	4151.00	1.00	1.00	21
Rumbos	Pág. 5	3702.00	1.00	1.00	21
Rumbos	Pág. 7	3702.00	1.00	1.00	21
Rumbos	Página	3356.00	1.00	1.00	21
Rumbos	Doble Pág.	3707.00	1.00	1.00	41
Rumbos	Media Pág. Vertical	4000.00	1.00	1.00	10
Rumbos	Media Pág. Horiz.	1915.00	1.00	1.00	21
Rumbos	Pie de Página	1121.00	1.00	1.00	21
Rumbos	Columna	3285.70	1.00	1.00	7
Viva	1er Pág. Imp - Pub Simple	7727.00	1.00	1.00	21
Viva	2da Pág. Imp - Pub Simple	7407.00	1.00	1.00	21
Viva	3er Pág. Imp - Pub Simple	7085.00	1.00	1.00	21
Viva	Pág. Imp - Sin Ubic	6763.00	1.00	1.00	21
Viva	Pág. Par - Sin Ubic	6441.00	1.00	1.00	21
Viva	1/2 Pág. Vertical	3664.00	1.00	1.00	10
Viva	1/2 Pág. Horiz	3946.80	1.00	1.00	21
Viva	1/3 Pág Vertical	8500.00	1.00	1.00	7
Viva	1/4 Pág Vertical	8022.00	1.00	1.00	7
Viva	1/4 Pág. Horiz	2580.50	1.00	1.00	21
Viva	Doble Pág. Interior	6200.00	1.00	1.00	41
Viva	Doble Pág. Central	6457.00	1.00	1.00	41
Viva	Contratapa	9830.00	1.00	1.00	21
Viva	Retiraciones de Tapa	7999.00	1.00	1.00	21
Viva	Retiraciones de Contratapa	7999.00	1.00	1.00	21
Viva	Tapa Ventana	7512.00	1.00	1.00	21
La Nación Revista	Pág. 5	6390.00	1.00	1.00	21
La Nación Revista	Pág. 7	5934.00	1.00	1.00	21
La Nación Revista	Pág. 9	5671.00	1.00	1.00	21
La Nación Revista	Pág. Interior	4952.00	1.00	1.00	21
La Nación Revista	1/2 Pág Horiz - Caja	3935.90	1.00	1.00	19
La Nación Revista	1/2 Pág Horiz - Corte	3468.00	1.00	1.00	21
La Nación Revista	1/2 Pág Vert - Caja	8092.00	1.00	1.00	10
La Nación Revista	1/2 Pág Vert - Corte	6961.00	1.00	1.00	10
La Nación Revista	1/4 Pág Vert - Caja	12630.00	1.00	1.00	4
La Nación Revista	1/4 Pág Vert - Corte	9528.00	1.00	1.00	5
La Nación Revista	1/4 Pág Horiz - Caja	6034.00	1.00	1.00	9
La Nación Revista	1/4 Pág Horiz - Corte	5313.00	1.00	1.00	10
La Nación Revista	Pie de Pág Grande - Caja	2381.00	1.00	1.00	19
La Nación Revista	Pie de Pág Grande - Corte	2098.00	1.00	1.00	21
La Nación Revista	Pie de Pág Mediano - Caja	2070.00	1.00	1.00	19
La Nación Revista	Pie de Pág Mediano - Corte	1824.00	1.00	1.00	21
La Nación Revista	Pie de Pág Chico - Caja	1795.00	1.00	1.00	19
La Nación Revista	Pie de Pág Chico - Corte	1538.00	1.00	1.00	21
La Nación Revista	Retiración Tapa	6662.00	1.00	1.00	21
La Nación Revista	Retiración Contratapa	5996.00	1.00	1.00	21
La Nación Revista	Contratapa	8607.00	1.00	1.00	21
La Nación Revista	Doble Pág - Caja	5246.80	1.00	1.00	40
La Nación Revista	Doble Pág - Corte	4934.50	1.00	1.00	42
La Nación Revista	Doble Pág. Central - Caja	6017.00	1.00	1.00	40
La Nación Revista	Doble Pág. Central - Corte	5659.00	1.00	1.00	42
La Nación Revista	Página PNT	6662.00	1.00	1.00	21
La Nación Revista	Doble Pág. PNT	6168.00	1.00	1.00	42
La Nación Revista	"Pie de Pág ""Sitios.com"" - Caja"	898.00	1.00	1.00	19
La Nación Revista	"Pie de Pág ""Imperdibles"" - Caja"	898.00	1.00	1.00	19
La Nación Revista	"Pie de Pág ""Sitios.com"" - Corte"	791.00	1.00	1.00	21
La Nación Revista	"Pie de Pág ""Impedibles"" - Corte"	791.00	1.00	1.00	21
La Nación Revista	"Pie de Pág ""Restaurantes"" - Caja"	2243.00	1.00	1.00	19
La Nación Revista	"Pie de Pág ""Ideas Living"" - Caja"	2243.00	1.00	1.00	19
La Nación Revista	"Pie de Pág ""Cocina"" - Caja"	2243.00	1.00	1.00	19
La Nación Revista	"Pie de Pág ""Restaurantes"" - Corte"	1977.00	1.00	1.00	21
La Nación Revista	"Pie de Pág ""Restaurantes"" - Corte"	1977.00	1.00	1.00	21
La Nación Revista	"Pie de Pág ""Ideas Living"" - Corte"	1977.00	1.00	1.00	21
La Nación Revista	"Pie de Pág ""Cocina"" - Corte"	1977.00	1.00	1.00	21
La Nación Revista	"Pie de Pág ""Horózcopo"" - Caja"	2243.00	1.00	1.00	19
La Nación Revista	"Pie de Pág ""Horózcopo"" - Corte"	1977.00	1.00	1.00	21
Punto a Punto	Retiración Tapa - Caja	788.00	28.00	1.00	18
Punto a Punto	Retiración Tapa - Corte	707.00	28.00	1.00	20
Punto a Punto	Contratapa - Caja	788.00	28.00	1.00	18
Punto a Punto	Contratapa - Corte	707.00	28.00	1.00	20
Punto a Punto	Pág. Sin Ubic - Caja	471.00	28.00	1.00	18
Punto a Punto	Pág. Sin Ubic - Corte	423.00	28.00	1.00	20
Punto a Punto	Pie de Tapa	315.00	28.00	1.00	13
Punto a Punto	Pie de Contratapa	262.60	28.00	1.00	18
Punto a Punto	Pie de Pág	206.00	28.00	1.00	18
Punto a Punto	Pie de Pág - Corto	236.00	28.00	1.00	13
Punto a Punto	Oreja Tapa - Grande	582.00	28.00	1.00	9
Punto a Punto	Oreja Tapa - Chico	775.00	28.00	1.00	4
Punto a Punto	1/2 Pág. Horiz	371.00	28.00	1.00	20
Punto a Punto	1/2 Pág. Vertical	764.00	28.00	1.00	20
La Voz del Interior	Directorio Inmob. Doble Retiro Tapa	308.00	30.00	5.00	6
La Voz del Interior	Directorio Inmob. Doble Retiro Contratapa	266.00	30.00	5.00	6
La Voz del Interior	Directorio Inmob. Doble Pág. Central	288.00	30.00	5.00	6
La Voz del Interior	Directorio Inmob. Contratapa	200.00	30.00	5.00	3
La Voz del Interior	Directorio Inmob. Pág. 5	154.00	30.00	5.00	3
La Voz del Interior	Directorio Inmob. Pág 7	145.00	30.00	5.00	3
La Voz del Interior	Directorio Inmob. Pág. 9	138.00	30.00	5.00	3
La Voz del Interior	Directorio Inmob. Pág S/U	123.00	30.00	5.00	3
La Voz del Interior	Directorio Inmob. Media Pág. S/U	155.00	30.00	5.00	3
Día a Día	Directorio Inmob. Doble Retiro Tapa	310.00	28.00	6.00	8
Día a Día	Directorio Inmob. Doble Retiro Contratapa	269.00	28.00	6.00	8
Día a Día	Directorio Inmob. Doble Pag. Central	290.00	28.00	6.00	8
Día a Día	Directorio Inmob. Contratapa	201.00	28.00	6.00	4
Día a Día	Directorio Inmob. Pág. 5	155.00	28.00	6.00	4
Día a Día	Directorio Inmob. Pág. 7	147.00	28.00	6.00	4
Día a Día	Directorio Inmob. Pág. 9	139.00	28.00	6.00	4
Día a Día	Directorio Inmob. Pág. S/U	124.00	28.00	6.00	4
Día a Día	Directorio Inmob. Media Pág. S/U	159.00	28.00	6.00	4
Ambito Financiero	alRugby.com Sector	73.00	38.00	3.80	6
Ambito Financiero	Espéctaculos Com e Inst.	66.00	38.00	3.83	6
Olé	Pág. 9 (S-D-L)	360.00	35.00	2.70	6
Olé	Pág. 5 (S-D-L)	407.00	35.00	2.70	6
Olé	Pág. Par A/C (S-D-L)	342.00	35.00	2.70	6
Olé	Pág. Central (S-D-L)	293.00	35.00	2.70	6
Olé	Pág. Imp. D/C (S-D-L)	269.00	35.00	2.70	6
Olé	Pág. Par D/C (S-D-L)	253.00	35.00	2.70	6
Olé	Contratapa (S-D-L)	398.00	35.00	2.70	6
Olé	Licitaciones (S-D-L)	218.00	35.00	2.70	6
La Voz del Interior	Pág. 02 dom LVZ	189.00	52.00	4.50	6
La Mañana de Córdoba	Tapa LMC	38.00	34.00	4.00	5
La Voz del Interior	Tapa (S) LVZ	272.00	52.00	4.50	6
La Voz del Interior	Pág. 02 (S) LVZ	100.00	52.00	4.50	6
La Voz del Interior	Pág. 03 (S) LVZ	163.00	52.00	4.50	6
La Voz del Interior	Pág. 04 (S) LVZ	99.00	52.00	4.50	6
La Voz del Interior	Pág. 05 (S) LVZ	157.00	52.00	4.50	6
La Voz del Interior	Pág. 06 (S) LVZ	94.00	52.00	4.50	6
La Voz del Interior	Pág. 07 (S) LVZ	151.00	52.00	4.50	6
La Voz del Interior	Pág. 08 (S) LVZ	94.00	52.00	4.50	6
La Voz del Interior	Pág. 10 (S) LVZ	93.00	52.00	4.50	6
La Voz del Interior	Pág. 11 (S) LVZ	139.00	52.00	4.50	6
La Voz del Interior	Pág. 12 (S) LVZ	93.00	52.00	4.50	6
La Voz del Interior	Pág. 13 (S) LVZ	137.00	52.00	4.50	6
La Voz del Interior	Par Post. Op. (S) LVZ	90.00	52.00	4.50	6
La Voz del Interior	Impar Post. Op. (S) LVZ	135.00	52.00	4.50	6
La Voz del Interior	Contratapa (S) LVZ	144.00	52.00	4.50	6
La Voz del Interior	Clasif. Tapa Color (S) LVZ	211.00	52.00	4.50	6
La Voz del Interior	Clasifica Bloque (S) LVZ	102.00	52.00	4.50	6
La Voz del Interior	Clasif. Tiff (S) LVZ	32.00	52.00	4.50	6
La Voz del Interior	Mundo D Tapa (S)	75.00	29.00	4.50	5
La Voz del Interior	Mundo D Bloque (S) LVZ	151.00	29.00	4.50	5
La Voz del Interior	Mundo D Contra. (S) LVZ	104.00	29.00	4.50	5
La Voz del Interior	Sup. Salud Bloque	54.00	29.00	4.50	5
La Voz del Interior	Sup. Salud Contra.	81.00	29.00	4.50	5
La Voz del Interior	Pág. Esp. y Sup. Esp (S) LVZ	111.00	52.00	4.50	6
La Voz del Interior	Vos Tapa Color (S) LVZ	104.00	29.00	4.50	5
La Voz del Interior	Vos Bloque (S) LVZ	70.00	29.00	4.50	5
La Voz del Interior	Vos Contra (S) LVZ	94.00	29.00	4.50	5
La Voz del Interior	Sup. VOS - M y B Tapa	38.00	52.00	4.50	6
La Voz del Interior	Sup. VOS - M y B Bloque	21.00	52.00	4.50	6
La Voz del Interior	Sup. VOS - M y B Contra	33.00	52.00	4.50	6
